{
  "changePassword": "ΑΛΛΑΞΕ ΚΩΔΙΚΟ",
  "logout": "Εξοδος",
  "settings": "Ρυθμίσεις",
  "currentPassword": "Τρέχον Κωδικός",
  "newPassword": "Νέος Κωδικός",
  "newPasswordAgain": "Επανάληψη Νέου Κωδικού",
  "save": "ΑΠΟΘΗΚΕΥΣΗ",
  "dashboard": "Tαμπλό",
  "people": "Άνθρωποι",
  "reports": "Αναφορές",
  "calendar": "Ημερολόγιο",
  "createWorkout": "Δημοσίευση Άσκησης",
  "news": "Νέα/Ειδήσεις",
  "activeMembers": "Ενεργά Μέλη",
  "sessionsPacks": "Πακέτο Συνεδριών",
  "membershipSuspended": "Μέλη σε Πάγωμα",
  "membershipExpiring": "Προς Λήξη Συνδρομής",
  "notShowedUpThisWeek": "Δεν Εμφανίστηκε Αυτή την Εβδομάδα",
  "openLeads": "Eνδιαφερόμενοι Πελάτες",
  "trainingToday": "Ημέρα Άσκησης",
  "birthdayToday": "Ημέρα Γενεθλίων",
  "leadsTurnedToMembersAtLast30Days": "Ενδιαφερόμενοι Πελάτες Γίνονται Μέλη τις Τελευταίες 30 Ημέρες",
  "leads": "Ενδιαφερόμενοι Πελάτες",
  "members": "Μέλη",
  "coaches": "Προπονητές",
  "yourBoxInNumbers": "Το Κουτί σου σε Νούμερα",
  "totalActiveMembers": "Σύνολο Ενεργών Μελών",
  "search": "Αναζήτηση",
  "firstName": "Όνομα",
  "lastName": "Επώνυμο",
  "location": "Τοποθεσία",
  "phone": "Τηλέφωνο",
  "status": "Κατάσταση",
  "source": "Πηγή",
  "lastModified": "Τελευταία Τροποποίηση",
  "leadName": "Όνομα Υποψήφιου Πελάτη",
  "email": "Ηλεκτρονική Διεύθυνση Ταχυδρομείου ",
  "activityLog": "Ημερολόγιο Δραστηριοτήτων",
  "attendance": "Συμμετοχή",
  "date": "Ημερομηνία",
  "comment": "Σχόλιο",
  "class": "Τάξη/Αίθουσα",
  "deleteLead": "Διαγραφή Υποψήφιου Πελάτη",
  "markAsLost": "Επισήμανση ως Χαμένο",
  "editLead": "Επεξεργασία Υποψήφιου Πελάτη",
  "convertToMember": "Μετατροπή σε Μέλος",
  "comments": "Σχόλια",
  "close": "ΚΛΕΙΣΙΜΟ",
  "done": "ΟΛΟΚΛΗΡΩΣΗ/ ΤΕΛΟΣ",
  "addNewStatus": "Εισαγωγή Νέας Κατάστασης/ Νέου Στάτους",
  "addNewSource": "Εισαγωγή Νέας Πηγής",
  "addNew": "Εισαγωγή Νέου",
  "name": "Όνομα",
  "add": "ΕΙΣΑΓΩΓΗ",
  "active": "Ενεργός",
  "suspend": "Πάγωμα Συνδρομής",
  "membershipType": "Είδος Συνδρομής",
  "startDateMembership": "Ημερομηνία Αρχής Συνδρομής",
  "endDateMembership": "Ημερομηνία Λήξης Συνδρομής",
  "price": "Τιμή",
  "birthday": "Γενέθλια",
  "height": "Ύψος (cm)",
  "weight": "Βάρος (kg)",
  "male": "Άνδρας",
  "female": "Γυναίκα",
  "address": "Διεύθυνση",
  "city": "Πόλη",
  "country": "Χώρα",
  "medicalCertificate": "Ιατρικό Πιστοποιητικό ",
  "injuries": "Τραυματισμοί",
  "userProfile": "Προφίλ Χρήστη/ Σελίδα Χρήστη",
  "athleteDetails": "Λεπτομέρειες Αθλητή",
  "gender": "Φύλο",
  "resetPassword": "Επαναφορά Κωδικού",
  "deactivateUser": "Απενεργοποίηση Χρήστη ",
  "activateUser": "Ενεργοποίηση Χρήστη",
  "deleteUser": "Διαγραφή Χρήστη",
  "editUser": "Επεξεργασία Χρήστη",
  "start": "Έναρξη",
  "end": "Τέλος",
  "totalSuspendedDays": "Σύνολο Ημερών σε Πάγωμα",
  "membershipActivity": "Δραστηριότητα Συνδρομής",
  "action": "Ενέργεια",
  "renew": "Ανανέωση",
  "suspension": "Πάγωμα ",
  "cancel": "ΑΚΥΡΟ",
  "editDates": "Επεξεργασία Ημερομηνιών",
  "cancelSuspension": "Ακύρωση Παγώματος",
  "note": "Σημείωση",
  "membershipCreated": "Δημιουργία Συνδρομής ",
  "startDate": "Ημερομηνία Έναρξης",
  "endDate": "Ημερομηνία Λήξης",
  "membershipCanceled": "Συνδρομή Ακυρώθηκε",
  "membershipDatesChanged": "Αλλαγή Ημερομηνιών Συνδρομής",
  "membershipSuspendedFor": "Συνδρομή σε Αναβολή για",
  "days": "Ημέρες",
  "until": "Μέχρι",
  "becauseOf": "Επειδή",
  "suspensionCanceled": "Ακύρωση Παγώματος",
  "cancelMembership": "Ακύρωση Συνδρομής",
  "cancelSuspend": "Ακύρωσε Αναβολή",
  "cancelReason": "Ακύρωσε Λόγο",
  "suspendReason": "Λόγος Παγώματος",
  "totalDays": "Σύνολο Ημερών",
  "backDate": "Πίσω Ημέρα",
  "documentType": "Είδος Έγγραφου",
  "documentDate": "Ημερομηνία Εγγράφου",
  "documentTime": "Ώρα Εγγράφου",
  "amount": "Ποσότητα",
  "showInvoice": "Δείξε Απόδειξη",
  "k": "Αναβαλλόμενες Αποδείξεις",
  "h": "Πιστωτικό τιμολόγιο",
  "-": "Φόρος παραλαβής τιμολογίου",
  "visitsLastWeek": "Επισκέψεις την Περασμένη Εβδομάδα",
  "weeklyAverage": "Εβδομαδιαίος Μέσος Όρος",
  "lastSeen": "Εθεάθη Τελευταία",
  "seachBySkill": "Αναζήτηση με Βάση την Δεξιότητα",
  "rm1": "RM1",
  "shoulderPress": "Πιέσεις Όμων",
  "backSquat": "Πίσω Βαθύ Κάθισμα",
  "frontSquat": "Εμπρόσθιο Βαθύ Κάθισμα",
  "overheadSquat": "Βαθύ Κάθισμα Πάνω από το Κεφάλι",
  "deadlift": "Άρση Θανάτου",
  "pushPress": "Push Press",
  "snatch": "Snatch",
  "benchPress": "Πιέσεις Πάγκου ",
  "clean": "Καθαρό",
  "jerk": "Jerk",
  "cleanJerk": "Clean & Jerk",
  "addNewCoachEditCoach": "Εισαγωγή Νέου Προπονητή/ Επεξεργασία Νέου Προπονητή",
  "usersAttendance": "Συμμετοχή Μελών",
  "membershipExpired": "Λήξη Συνδρομής",
  "notShowedUp": "Δεν Εμφανίστηκε ",
  "usersCancelledSchedulesAtLast90Days": "Χρήστες Ακύρωσαν Προγράμματα",
  "leadsConvertedToMembersAtLast30Days": "Υποψήφια Μέλη Τροποποιήθηκαν σε Μέλη",
  "leadsAttendance": "Παρουσία Υποψήφιων Μελών",
  "birthdays": "Γενέθλια",
  "usersTrainingToday": "Ημέρα Άσκησης Χρηστών",
  "membershipExpiringUsers": "Συνδρομή Λήγει Χρήστες",
  "membershipExpiredUsers": "Συνδρομή Ληγμένων Χρηστών",
  "membershipSuspendedUsers": "Συνδρομή Χρηστών σε Αναβολή",
  "usersNotShowedThisWeek": "Μη Παρευρισκόμενα Μέλη της Εβδομάδας",
  "userScheduleCancellation": "Ακύρωση Κράτησης Μελών ",
  "sessionPacks": "Πακέτο Συνεδριών",
  "leadConvertedReport": "Τροποποίηση Αναφοράς Υποψήφιων Πελατών",
  "todayBirthdays": "Γενέθλια Σήμερα",
  "time": "Ώρα",
  "workout": "Άσκηση",
  "total": "Σύνολο",
  "expiringDate": "Ημερομηνία Λήξης",
  "expiredDate": "Ημερομηνία Λήξεως",
  "suspendedTill": "Αναβολή Μέχρι",
  "scheduleDate": "Ημέρα Προγράμματος",
  "scheduleTime": "Ώρα Προγράμματος",
  "registerTime": "Ώρα Εγγραφής",
  "cancelTime": "Ώρα Ακύρωσης",
  "cancelledHours": "Ακυρωμένες Ώρες",
  "sessionsLeft": "Εναπομείναντες Συνεδρίες",
  "totalSessions": "Σύνολο Συνεδριών",
  "convertedDate": "Τροποποιημένη Ημερομηνία",
  "all": "Όλα",
  "searchForFirstName": "Αναζήτηση Ονόματος",
  "searchByName": "Αναζήτηση με Όνομα",
  "searchByPeriod": "Αναζήτηση Περιόδου",
  "searchForLastName": "Αναζήτηση Επωνύμου",
  "searchEndDate": "Αναζήτηση Τελικής Ημερομηνίας",
  "searchSuspendDays": "Αναζήτηση Αναβλείθησων Μερών",
  "searchForTime": "Αναζήτηση Ώρας",
  "searchForWorkout": "Αναζήτηση Άσκησης",
  "searchForPhone": "Αναζήτηση Τηλεφώνου",
  "searchForExpiringDate": "Αναζήτηση Ημερομηνίας Λήξης",
  "searchForExpiredDate": "Αναζήτηση Λήξασας Ημερομηνίας",
  "searchForLastSeen": "Αναζήτηση για Εθεάθη Τελευταία ",
  "searchForScheduleTime": "Αναζήτηση Ώρας Προγράμματος ",
  "searchForScheduleDate": "Αναζήτηση Μέρας Προγράμματος",
  "searchForRegisterTime": "Αναζήτηση Ώρας Εγγραφής",
  "searchForCancelTime": "Αναζήτηση Ώρας Ακύρωσης",
  "searchForCancelledHours": "Αναζήτηση Ακυρωμένων Ωρών",
  "searchForSessionsLeft": "Αναζήτηση για Εναπομείναντες Συνεδρίες",
  "searchForTotalSessions": "Αναζήτηση Συνόλου Συνδριών",
  "searchConvertDate": "Αναζήτηση Μετατροπής Ημερομηνίας",
  "searchForBirthday": "Αναζήτηση Γενεθλίων",
  "hour": "Ώρα Έναρξης",
  "coach": "Γυμναστής",
  "registered": "Έχει Γίνει Κράτηση",
  "standby": "Αναμονή",
  "addWorkout": "Κοινοποίησε την Άσκηση",
  "cloneWeek": "Εβδομάδα Κλώνος",
  "addNewClass": "Πρόσθεσε Νέα Τάξη",
  "coachName": "Όνομα Γυμναστή",
  "repeatOn": "Επανάληψη Ενεργή",
  "startHour": "Ώρα Εκκίνησης",
  "sunday": "Κυριακή",
  "monday": "Δευτέρα",
  "tuesday": "Τρίτη",
  "wednesday": "Τετάρτη",
  "thursday": "Πέμπτη",
  "friday": "Παρασκευή",
  "saturday": "Σάββατο",
  "sundayShort": "Κ",
  "mondayShort": "Δ",
  "tuesdayShort": "Tρ",
  "wednesdayShort": "Τ",
  "thursdayShort": "Π",
  "fridayShort": "Παρ",
  "saturdayShort": "Σ",
  "min": "Απαιτούμενο Ελάχιστο ",
  "max": "Mέγιστο",
  "hoursBefore": "Ώρες Πριν την Τάξη",
  "enableRegistration": "Επέτρεψε Κράτηση Από",
  "disableCancellation": "Επέτρεψε Ακύρωση Κράτησης Μεχρι",
  "classRequired": "Τάξη Υποχρεωτική",
  "section": "Τομέας",
  "type": "Είδος",
  "skill": "Δεξιότητα",
  "reps": "Επαναλήψεις",
  "rxMale": "RX Αρσενικό",
  "rxFemale": "RX Θηλυκό",
  "updateWorkout": "Ενημέρωση Άσκησης",
  "addNewsEditNews": "Προσθήκη Νέων/Επεξεργασία Νέων",
  "accountDetails": "Λεπτομέρειες Λογαριασμού",
  "manager": "Διευθυντής",
  "membershipTypes": "Όλοι οι Πελάτες",
  "periodSession": "Περίοδος/Συνεδρία",
  "addNewPlan": "Προσθήκη Νέου Πλάνου",
  "addNewSessionPack": "Προσθήκη Νέου Πακέτου Συνεδριών",
  "period": "Περίοδος",
  "weeks": "Εβδομάδες",
  "months": "Μήνες",
  "years": "Χρόνια",
  "unlimited": "Απεριόριστα",
  "limited": "Περιορισμένα",
  "classes": "Τάξεις",
  "times": "Συχνότητα",
  "hours": "Ώρες",
  "day": "Ημέρα",
  "week": "Εβδομάδα",
  "month": "Μήνας",
  "year": "Χρόνος",
  "noExpiration": "Χωρίς Λήξη",
  "expirationPeriod": "Περίοδος Λήξης",
  "numberOfSessions": "Αριθμός Συνεδριών",
  "leadCreated": "Δημιουργήθηκε Ενδιαφερόμενος Πελάτης",
  "areYouSure": "Είσαι Σίγουρος;",
  "dismissLeadFromClub": "Πρόκειται να σημαδέψεις τον ενδιαφερόμενο πελάτη ως Χαμένο, δηλαδή πλέον δεν θα εμφανίζεται στην Αναφορά Ανοιχτών Ενδιαφερόμενων Πελατών. Είσαι σίγουρος/η ότι θέλεις να προχωρήσεις;",
  "iAmSure": "Ναι! Είμαι σίγουρος/η",
  "iRegret": "Όχι, το μετάνιωσα ",
  "canceled": "Ακυρώθηκε",
  "leadUpdated": "Ενδιαφερόμενος Πελάτης Ενημερώθηκε",
  "userCreated": "Δημιουργήθηκε Χρήστης!",
  "fillThisField": "Παρακαλώ συμπληρώστε το πεδίο",
  "userMembershipUpdated": "Ανανεώθηκε η Συνδρομή Χρήστη",
  "noteAdded": "Προστέθηκε Σχόλιο ",
  "userSuspended": "Χρήστης Αναβλήθηκε ",
  "emailExists": "H Hλεκτρονική Διεύθυνση Ταχυδρομείου υπάρχει στο σύστημα, παρακαλώ επικοινωνήστε μαζί μας στο support@arboxapp.com",
  "maxAtheletsCantBeBigger": "O ελάχιστος αριθμός δεν μπορεί να είναι μεγαλύτερος απο τον μέγιστο αριθμό των αθλητών.",
  "trainingUpdated": "Ενημερώθηκαν οι πληροφορίες της τάξης.",
  "unactiveUserCantRegisterToWorkouts": "Ο χρήστης είναι ανενεργός, δεν μπορεί να εγγραφεί στις τάξεις.",
  "suspendedUserCantRegisterToWorkouts": "Ο χρήστης έχει αναβληθεί, είσαι σίγουρος οτι θέλεις να του κάνεις κράτηση στην τάξη ούτως ή άλλως;",
  "limitedTimeUserCantRegisterToWorkout": "Ο χρήστης είναι περιορισμένος σε τάξεις μεταξύ συγκεκριμένων ωρών, είσαι σίγουρος οτι θέλεις να του κάνεις κράτηση ούτως ή άλλως; Του επιτρέπεται η εγγραφή μόνο μεταξύ;",
  "classExcluded": "Ο χρήστης δεν δικαιούται αυτό το είδος τάξης σύμφωνα με τους όρους της συνδρομής του, είσαι σίγουρος οτι θέλεις να κάνεις κράτηση ούτως ή άλλως;",
  "limitedTimes": "Ο χρήστης έχει υπερέβει τα όρια κράτησης του σύμφωνα με την συνδρομή του, είσαι σίγουρος οτι θέλεις να κάνεις κράτηση ούτως ή άλλως; Του επιτρέπεται η κράτηση μόνο ",
  "fillClassField": "Παρακαλώ συμπλήρωσε το πεδίο τάξης",
  "workoutCreated": "Δημιουργήθηκε Άσκηση",
  "workoutUpdates": "Ενημερώθηκε Άσκηση",
  "cannotEditWorkout": "Δεν μπορείς να επεξεργαστείς μια προπόνηση την ημέρα της Άσκησης.",
  "makeSureYouFillInTheSectionField": "Επιβεβαίωσε πως συμπλήρωσες το πεδίο",
  "makeSureYouFillInAllTheTotalTimeField": "Επιβεβαίωσε πως συμπλήρωσες το πεδίο του συνόλου χρόνων",
  "makeSureYouFillInTheSkillField": "Επιβεβαίωσε πως συμπλήρωσες το πεδίο δεξιοτήτων",
  "makeSureYouFillInAllTheTotalRoundsField": "Επιβεβαίωσε πως συμπλήρωσες το πεδίο του συνόλου γύρων",
  "error": "Σφάλμα",
  "makeSureYouFillInTheTypeField": "Επιβεβαίωσε πως συμπλήρωσες το πεδίο είδους",
  "youCantFillOnlyOneOfTheFieldInTheHoursSection": "Μπορείς να συμπληρώσεις μόνο ένα πεδίο απο το τομέα ωρών.",
  "youWillDeleteThisMembershipTypeFromYourSystem": "Θα διαγράψεις αυτό το είδος συνδρομής απο το σύστημα",
  "membershipTypeDeletedFromYourBox": "Το είδος συνδρομής θα διαγραφεί απο το κουτί σου",
  "failedToDeleteMembershipType": "Απέτυχες να διαγράψεις αυτό το είδος συνδρομής, παρακαλώ προσπάθησε ξανά ",
  "yourStartTimeCannotAfterEndTime": "Η ώρα έναρξης δεν μπορει να είναι μετα την ώρα λήξης",
  "searchForDate": "Αναζήτηση Ημερομηνίας",
  "addNewLeadEditLead": "Πρόσθεσε Νέο Υποψήφιο Πελάτη/Επεξεργασία Υποψήφιου Πελάτη ",
  "yes": "ΝΑΙ",
  "no": "ΟΧΙ",
  "addNewMemberEditMember": "Προσθήκη Νέου Μέλους/Επεξεργασία Μέλους ",
  "warning": "Προειδοποίηση",
  "revive": "Επανέφερε Υποψήφιο Πελάτη ",
  "reviveLeadFormClud": "Θα επαναφέρεις αυτόν τον υποψήφιοθ πελάτη στoν σύλλογό σου",
  "leadProfile": "Προφίλ Υποψήφιου Πελάτη",
  "success": "Επιτυχία",
  "leadIsMarkedAsLost": "Ο υποψήφιος πελάτης σημαδεύτηκε ως χαμένος",
  "somethingWentWrongPleaseTryAgain": "Κάτι πήγε στραβά, παρακαλώ προσπάθησε ξανά",
  "leadRevived": "Υποψήφιος πελάτης επαναφέρθηκε!",
  "leadRemoved": "Ο υποψήφιος πελάτης διαγράφηκε! ",
  "wrongInput": "Λάθος Καταχώρηση",
  "yourStartDateCannotBeAfterTheEndDate": "Η ημερομηνία έναρξης δεν μπορεί να είναι μετά την ημερομηνία λήξης",
  "thisEmailExistsPleaseContactUs": "Η διεύθυνση ηλεκτρονικού ταχυδρομείου υπάρχει ήδη στο σύστημα, παρακαλώ επικοινωνήστε μαζί μας για βοήθεια στο support@arboxapp.com ",
  "finance": "Οικονομικά",
  "category": "Κατηγορία",
  "required": "Απαιτείται",
  "toPDF": "Εξαγωγή σε PDF",
  "method": "Μέθοδος",
  "transactionDate": "Ημερομηνία Συναλλαγής",
  "transactionId": "Αριθμός Ταυτότητας Συναλλαγής",
  "item": "Αντικείμενο",
  "membershipDetails": "Λεπτομέρειες Συνδρομής",
  "from": "Από",
  "editSessions": "Επεξεργασία Συνεδριών",
  "payments": "Πληρωμές",
  "checkedIn": "Έλεγχος",
  "performance": "Απόδοση",
  "searchBySkill": "Αναζήτηση με βάση Δεξιότητας",
  "rounds": "Γύροι",
  "extraReps": "Επιπλέον Επαναλήψεις",
  "pleaseCheckCurrentMembershipStartEndDate": "Παρακαλώ ελέγξτε οτι η παρούσα συνδρομή έχει ημερομηνία αρχής και λήξης",
  "pleaseCheckCurrentMembershipNotFinished": "Παρακαλώ ελέγξτε οτι η παρούσα συνδρομή δεν έχει τελειώσει.",
  "youCanNotCancelSuspensionOnUserNotSuspended": "Δεν μπορείς να ακυρώσεις το πάγωμα ενός χρήστη που δεν έχει κάνει πάγωμα συνδρομής",
  "youCanNotEditSessionsNonSessionMembershipUser": "Δεν μπορείς να επεξεργαστείς τις εναπομείνασες συνεδρίες ενός μέλους που δεν έχει συνδρομή του είδους Πακέτων Συνδρομών",
  "pleaseFillSesionsLeft": "Παρακαλώ συμπλήρωσε το πεδίο των εναπομείνασων συνεδριών ",
  "sessionsEditedAdded": "Επεξεργάστηκαν οι εναπομείνασες συνεδρίες ",
  "userMembershipDatesUpdated": "Ανανεώθηκαν με επιτυχία οι ημερομηνίες συνδρομών των μελών ",
  "pleaseFillText": "Παρακαλώ συμπλήρωσε το κείμενο..",
  "pleaseEnterDateFormatDDMMYYYY": "Παρακαλώ γράψε την ημερομηνία στην κατάλληλη μορφή ΗΜ-Μ-ΧΧΧΧ ",
  "pleaseEnterMembershipType": "Παρακαλώ καταχώρησε το είδος συνδρομής ",
  "ifYouFillStartDateYouHaveAlsoFillEndDate": "Εάν εισάγεις την ημερομηνία έναρξης πρέπει να συμπληρώσεις και την ημερομηνία λήξης",
  "startDateCanNotBeAfterTheEnd": "Η ημερομηνία έναρξης δεν μπορεί να είναι μετά το τέλος.. ",
  "userUpdated": "Το μέλος ενημερώθηκε!",
  "youWillDeactivateAthlete": "Πρόκειται να απενεργοποιήσεις αυτό το μέλος, σημαίνει πως δεν θα μπορεί να κάνει κράτηση για τάξεις ή να δεί τίποτα για την επιχείρησή σου, είσαι σίγουρος πως θέλεις να συνεχίσεις? ",
  "userDeactivated": "Χρήστης απενεργοποιήθηκε με επιτυχία!",
  "youWillResetAthletePassword": "Νέος κωδικός θα σταλθεί στο ηλεκτρονικό ταχυδρομείο του χρήστη, είσαι σίγουρος πως θέλεις να συνεχίσεις;",
  "resetPasswordFor": "Νέος κωδικός στάλθηκε στο",
  "succeeded": "!",
  "youWillActivateAthlete": "Αυτός ο χρήστης θα ενεργοποιηθεί, είσαι σίγουρος πως θέλεις να συνεχίσεις; ",
  "userActivated": "Χρήστης ενεργοποιήθηκε με επιτυχία! ",
  "youWillDeleteAthleteFromSystem": "Αυτό το μέλος θα διαγραφεί απο το σύστημα, αυτή η πράξη δεν μπορεί να ανατραπεί. Συνιστούμαι να μην διαγράψετε τους χρήστες αλλά να τους απενεργοποιήσετε, θέλετε να τον διαγράψετε ούτως ή άλλως; ",
  "userDeletedFromClud": "Ο χρήστης διαγράφηκε απο το σύστημα! ",
  "filter": "Φίλτρο",
  "to": "Προς",
  "youWillDeleteTrainingCalendar": "Αυτή η τάξη θα διαγραφεί απο το πρόγραμμα, είσαι σίγουρος πως θέλεις να προχωρήσεις; ",
  "trainingDeletedFromCalendar": "Η τάξη διαγράφηκε απο το πρόγραμμα με επιτυχία ",
  "youWillDeleteAthleteTraining": "Αυτό το μέλος/υποψήφιος πελάτης θα αφαιρεθεί απο αυτήν την τάξη, είσαι σίγουρος πως θέλεις να προχωρήσεις; ",
  "athleteDeletedTraining": "Το μέλος/υποψήφιος πελάτης διαγράφηκε απο την τάξη με επιτυχία! ",
  "trainingsCloned": "Το πρόγραμμα της εβδομάδας κλωνοποιήθηκε με επιτυχία! ",
  "workoutAddedToCalendar": "Αυτή η τάξη προστέθηκε στο πρόγραμμα με επιτυχία! ",
  "maxAthletesCannotBeSmallerThenMinAthletes": "Ο μέγιστος αριθμός των συμμετέχοντων δεν μπορεί να είναι μικρότερος απο τον ελάχιστο αριθμό των συμμετέχοντων ",
  "addNewCategory": "Πρόσθεσε Νέο Είδος Τάξης ",
  "users": "Χρήστες",
  "searchUserYouWantAddToCurrentWorkout": "Βρές το μέλος/υποψήφιο πελάτη για τον οποίο θέλεις να κάνεις κράτηση στην τάξη και κάνε κλικ στο Πρόσθεσε ",
  "edit": "Επεξεργάσου",
  "editing": "Επεξεργασία",
  "cloneThisWeekScheduleNext": "Κλωνοποίησε το πρόγραμμα αυτής της εβδομάδας για την επόμενη ",
  "searchForItem": "Αναζήτηση Αντικειμένου",
  "SearchForAmount": "Αναζήτηση Ποσού",
  "expenses": "Έξοδα",
  "incomes": "Έσοδα",
  "youWillDeleteThisTransaction": "Θα διαγράψεις αυτήν την συναλλαγή",
  "transactionDeleted": "Η συναλλαγή διαγράφηκε! ",
  "transactionNotDeletedPleaseTryAgain": "Η συναλλαγή δεν διαγράφηκε, παρακαλώ προσπάθησε ξανά",
  "newPayment": "Νέα Πληρωμή",
  "youAreTryingAddWorkoutAndDontHaveSchedule": "Προσπαθείς να εισάγεις μία άσκηση αλλά δεν έχεις πρόγραμμα, παρακαλώ πήγαινε στην σελίδα του ημερολογίου και δημιούργησε ενα πρόγραμμα πρώτα. ",
  "sectionWasAdded": "Προστέθηκε τομέας ",
  "sets": "Σύνολα",
  "messageDeletedFromYourBox": "Το μήνυμα διαγράφηκε απο το σύστημα",
  "newsUpdated": "Το μύνημα ενημερώθηκε",
  "pleaseFillSomeText": "Παρακαλώ συμπλήρωσε το κείμενο",
  "newsAddedToYourBox": "Το μύνημα προστέθηκε στο σύστημα και στάλθηκε στους πελάτες ",
  "searchByNews": "Αναζήτηση Κειμένου",
  "by": "Απο",
  "userIsNotConnectedToAnyMembership": "Ο χρήστης δεν είναι συνδεδεμένος σε καμία συνδρομή, παρακαλώ ελέγξτε ξανά ",
  "membershipTypeUpdated": "Είδος συνδρομής ενημερώθηκε ",
  "errorInUpdatingMembershipType": "Σφάλμα στην ενημέρωση είδους συνδρομής, παρακαλώ επικοινωνήστε μαζί μας ",
  "membership": "Συνδρομή",
  "alreadyExists": "Υπάρχει ήδη",
  "youCantExcludeAllCategories": "Δεν μπορείς να αποκλείσεις όλες τις κατηγορίες ",
  "membershipTypeAdded": "Προστέθηκε είδος συνδρομής",
  "errorAddingMembershipType": "Σφάλμα στην εισαγωγή είδους συνδρομής, παρακαλώ επικοινωνήστε μαζί μας ",
  "plan": "Σχέδιο",
  "addSessionsPack": "Προσθήκη Νέου Πακέτου Συνδρομής ",
  "addNewSessionsPackEditSessionsPack": "Εισαγωγή Νέου Πακέτου Συνδρομής/Επεξεργασία Πακέτου Συνδρομής ",
  "timesPer": "Φορές Ανα",
  "asLead": "Ως Υποψήφιος Πελάτης ",
  "leadActivity": "Δραστηριότητα Ως Υποψήφιος Πελάτης ",
  "expiredSessionPacks": "Ληγμένο Πακέτο Συνδρομής",
  "membershipCancelled": "Ακυρωμένες Συνδρομές ",
  "searchForStatus": "Αναζήτηση Κατάστασης",
  "personalId": "Αριθμός Ταυτότητας",
  "additionalPhone": "Επιπλέον Αριθμός",
  "nonActiveMembers": "Ανενεργά Μέλη",
  "languages": "Γλώσσες",
  "attendanceAsLead": "Συμμετοχή ως υποψήφιος πελάτης ",
  "thereAreOtherTrainings": "Προσοχή! Υπάρχουν ήδη ασκήσεις στις εβδομάδες στις οποίες πραγματοιποιείται η κλωνοποίηση, μπορεί να αναπαράξει διπλές τάξεις. Είσαι σίγουρος πως θέλεις να προχωρήσεις; P",
  "coachDetails": "Λεπτομέρειες Προπονητή",
  "coachWorkouts": "Ασκήσεις Προπονητή",
  "editCoach": "Επεξεργασία Προπονητή",
  "deleteCoach": "Διαγραφή Προπονητή",
  "activateCoach": "Ενεργοποίηση Προπονητή",
  "deactivateCoach": "Απενεργοποίηση Προπονητή",
  "convertCoachToMember": "Μετατροπή Προπονητή σε Μέλος",
  "youWillChangeThisCoachToUser": "Πρόκειται να μετατρέψεις τον προπονητή σε μέλος, είσαι σίγουρος; ",
  "coachConvertedToUser": "Ο Προπονητής Μετετράπει σε Μέλος!",
  "convertMemberToCoach": "Μετατροπή Μέλους σε Προπονητή",
  "youWillChangeThisMemberToCoach": "Πρόκειται να μετατρέψεις το μέλος σε προπονητή, είσαι σίγουρος; ",
  "memberConvertedToCoach": "Μέλος Μετετράπει σε Προπονητή!",
  "searchForRegisteredAmount": "Αναζήτηση Eγγεγραμμένου Ποσού",
  "searchForCheckedInAmount": "Αναζήτηση Καταχωρημένου Ποσού ",
  "currency": "(ILS)",
  "addEditPlan": "Προσθήκη Νέου Πλάνου/ Επεξεργασία Πλάνου ",
  "createdAt": "Δημιουργήθηκε",
  "restrictUser": "Περιόρισε Κράτηση απο την Αίτηση",
  "unRestrictUser": "Ελευθέρωσε Κράτηση απο την Αίτηση",
  "youWillRestrictAthlete": "Αυτό θα περιορίσει το μέλος απο την κράτηση τάξεων μέσω της εφαρμογής κινητών τηλεφώνων, είσαι σίγουρος πως θέλεις να συνεχίσεις;",
  "youWillUnRestrictAthlete": "Θα ελευθερώσεις αυτόν τον χρήστη και θα μπορεί να κάνει κράτηση μέσω της εφαρμογής κινητών τηλεφώνων, είσαι σίγουρος πως θέλεις να συνεχίσεις;",
  "restrictedMembers": "Περιορισμένα Μέλη",
  "coachesSchedules": "Τάξεις Προπονητών",
  "editUserSessions": "Επεξεργασία Συνεδριών Μελών",
  "searchForCancelHours": "Αναζήτηση Ακυρωμένων Ωρών",
  "registeredUsers": "Κρατημένα Μέλη",
  "checkedInUsers": "Εγγεγραμμένα Μέλη",
  "searchForSource": "Αναζήτηση Πηγής",
  "cancelDate": "Ακύρωση Ημερομηνίας",
  "cancelComment": "Ακύρωση Σχόλιου",
  "searchForReason": "Αναζήτηση Λόγου",
  "searchForComment": "Αναζήτηση Σχόλιου",
  "searchForSuspendedDays": "Αναζήτηση Αναβεβλήθεισων Ημερών",
  "sessionsPunched": "Sessions Punched",
  "packType": "Είδος Πακέτου",
  "searchForPackType": "Αναζήτηση Είδους Πακέτου",
  "tasks": "Καθήκοντα",
  "searchForEmail": "Αναζήτηση Ηλεκτρονικού Ταχυδρομείου",
  "addNewTaskEditTask": "Προσθήκη Νέου Καθήκοντος/Επεξεργασία Καθήκοντος",
  "taskType": "Είδος Καθήκοντος",
  "reminderDate": "Ημερομηνία Yπενθύμισης",
  "reminderHour": "Ώρα Yπενθύμισης",
  "youWillDeleteThisTask": "Αυτό το καθήκον θα διαγραφεί απο το σύστημα, είσαι σίγουρος πως θέλεις να συνεχίσεις;",
  "taskDeleted": "Το Καθήκον Διαγράφτηκε με Επιτυχία!",
  "taskDescription": "Περιγραφή Καθήκοντος",
  "addNewTaskType": "Πρόσθεσε Τύπο",
  "expiring": "Λήγει",
  "leadsConverted": "Τροποποιήθηκε Υποψήφιος Πελάτης",
  "reminderTime": "Ώρα Yπενθύμισης",
  "taskDoneTime": "Ώρα Ολοκλήρωσης",
  "delete": "Διαγραφή",
  "customDates": "ΗΜΕΡΟΜΗΝΙΕΣ ΚΑΤΑ ΠΑΡΑΓΓΕΛΙΑ",
  "laseSevenDays": "ΤΕΛΕΥΤΑΙΕΣ 7 ΗΜΕΡΕΣ",
  "yesterday": "ΧΘΕΣ",
  "tomorrow": "Αύριο",
  "today": "ΣΗΜΕΡΑ",
  "todayTasks": "Σημερινά Καθήκοντα",
  "totalOpenTasks": "Σύνολο Καθηκόντων",
  "todayClasses": "Σημερινές Τάξεις",
  "totalTraining": "Συνολική Προπόνηση",
  "accountSettings": "Ρυθμίσεις Λογαριασμού",
  "language": "Γλώσσα",
  "timezone": "Ζώνη Ώρας",
  "membershipPlans": "Πλάνα Συνδρομής",
  "leadStatuses": "Κατάσταση Υποψήφιων Πελατών",
  "leadSources": "Πηγές Υποψήφιων Πελατών",
  "classesTypes": "Είδη Τάξεων",
  "taskTypes": "Είδη Καθηκόντων",
  "searchArbox": "Αναζήτηση Arbox",
  "makeSureYouFillInCategoryField": "Επιβεβαίωσε πως συμπληρώθηκε το πεδίο κατηγορίας.",
  "makeSureYouFillInDateFieldFormatDDMMYYYY": "Επιβεβαίωσε πως συμπληρώθηκε το πεδίο ημερομηνίας με τον κατάλληλο τύπο ημ-ΜΜ-ΧΧΧΧ",
  "makeSureYouFillInSectionField": "Επιβεβαίωσε πως συμπλήρωσες το πεδίο. ",
  "makeSureYouFillInTypeField": "Επιβεβαίωσε πως συμπλήρωσες το πεδίο είδους.",
  "makeSureYouFillInSkillField": "Επιβεβαίωσε πως συμπλήρωσες το πεδίο δεξιοτήτων.",
  "makeSureYouFillInAllTotalRoundField": "Επιβεβαίωσε πως συμπλήρωσες το πεδίο του συνόλου γύρων.",
  "makeSureYouFillInAllTotalTimeField": "Επιβεβαίωσε πως συμπλήρωσες το πεδίο του συνόλου χρόνων.",
  "makeSureYouFillInAllRepsField": "Επιβεβαίωσε πως συμπλήρωσες το πεδίο των επαναλήψεων.",
  "coachUpdates": "Οι πληροφορίες προπονητή ενημερώθηκαν με επιτυχία.",
  "startDateCannotBeAfterEndDate": "Η ημερομηνία έναρξης δεν μπορεί να είναι μετά την ημερομηνία λήξης. Παρακαλώ διορθώστε το.",
  "userCreatedMailWithDetailsWasSent": "Το μέλος δημιουργήθηκε με επιτυχία! Στάλθηκε μήνυμα στην διεύθυνση ηλεκτρονικού ταχυδρομείου με τον κωδικό και τον σύνδεσμο για την αίτηση.",
  "emailAlreadyExistsPleadeContactUs": "Αυτή η διεύθυνση ηλεκτρονικού υπάρχει ήδη στο σύστημα, παρακαλώ επικοινωνήστε μαζί μας στο support@arboxapp.com για πληροφορίες. ",
  "userMembershipCancelled": "Η συνδρομή ακυρώθηκε με επιτυχία ",
  "userMembershipSuspended": "Το μέλος αναβλήθηκε με επιτυχία",
  "userMembershipRenewed": "Η νέα συνδρομή ενημερώθηκε με επιτυχία. ",
  "userMembershipSessionsUpdated": "Οι υπολείπουσες συνεδριάσεις ενημερώθηκαν με επιτυχία. ",
  "userMembershipSuspendedCancelled": "Η αναβολή ακυρώθηκε με επιτυχία!  ",
  "deleteLeadWarningText": "Πρόκειται να διαγράψεις αυτόν τον υποψήφιο πελάτη απο το σύστημα, αυτή η πράξη δεν μπορεί να ανατραπεί, είσαι σίγουρος πως θέλεις να συνεχίσεις;",
  "totalSessionsAmount": "Συνολικός αριθμός συνεδριών:",
  "notShowedUpReport": "Απουσία Μακροχρόνιων Μελών",
  "sessionsPacksSettings": "Είδη Πακέτων Συνδρομής",
  "searchNews": "Αναζήτηση Νέων",
  "updatedAt": "Ενημερώθηκε ",
  "lostLeads": "Χαμένοι Υποψήφιοι Πελάτες",
  "lostDate": "Χαμένες Ημερομηνίες",
  "addCommentToDismissLead": "Σχόλιο",
  "activeMembersReport": "Ενεργά Μέλη",
  "createMember": "Προσθήκη Νέου Μέλους",
  "createLead": "Προσθήκη Νέου Υποψήφιου Πελάτη",
  "createNews": "Κοινοποίηση Μηνύματος",
  "createTask": "Εισαγωγή Νέου Καθήκοντος",
  "addWorkoutType": "Εισαγωγή Είδους Τάξης",
  "addLeadSource": "Εισαγωγή Πηγής Υποψήφιου Πελάτη",
  "addLeadStatus": "Εισαγωγή Κατάστασης Υποψήφιου Πελάτη",
  "addTaskType": "Εισαγωγή Είδους Καθήκοντος",
  "leadSource": "Πηγή Υποψήφιου Πελάτη",
  "leadStatus": "Κατάσταση Υποψήφιου Πελάτη",
  "addPlan": "Εισαγωγή Νέου Πλάνου",
  "cancelled": "Η πράξη ακυρώθηκε",
  "doneTask": "Πραγματοποιήθηκε",
  "taskCreatedSuccessfully": "Η πράξη ολοκληρώθηκε με επιτυχία!",
  "allowedCategory": "Επιτρεπόμενα Είδη Τάξεων",
  "noTasksTodayText": "Δεν Υπάρχουν Καθήκοντα για Αυτές τις Ημερομηνίες",
  "sendWelcomeMail": "Αποστολή \"Μηνύματος Καλωσορισμού\"\\ στον πελάτη;",
  "goToProfile": "Προφίλ",
  "markTaskAsUndone": "Σημάδεψε το καθήκον ως Μη Ολοκληρωμένο",
  "markTaskAsDone": "Σημάδεψε το καθήκον ως Ολοκληρωμένο",
  "deleteTask": "Διέγραψε το Καθήκον",
  "toDateMissedMembers": "Τελευταία Συμμετοχή",
  "activeMembersDashboard": "Ενεργά Μέλη",
  "editSessionPack": "Επεξεργασία",
  "editMembershipType": "Επεξεργασία",
  "editTaskType": "Επεξεργασία",
  "editLeadStatus": "Επεξεργασία",
  "editLeadSource": "Επεξεργασία",
  "editCategory": "Επεξεργασία",
  "removeNews": "Επεξεργασία",
  "editNews": "Επεξεργασία",
  "addworkout": "Εισαγωγή Τάξης",
  "totalessions": "Από",
  "totalTime": "Ώρα",
  "documentsRivhit": "Έγγραφα",
  "receiptRivhit": "Αποδείξεις",
  "passwordResetSuccess": "Ολοκληρώθηκε!",
  "addUsersPopup": "Εγγραφή μελών/υποψήφιων πελατών στην τάξη",
  "updateStatus": "Ενημέρωσε Κατάσταση",
  "leadStatusUpdatedSuccessfully": "Κατάσταση Ενημερώθηκε με Επιτυχία!",
  "isMembershipCancelled": "Ακύρωση Παγώματος",
  "attendanceHistory": "Ιστορικό Παρουσίας",
  "addNewMemberSignUp": "Εισαγωγή Επαναλαμβανόμενης Κράτησης",
  "endTime": "Ώρα Λήξης",
  "seriesName": "Όνομα Επαναλαμβανόμενης Τάξης",
  "noSeriesInThisCategory": "Δεν Υπάρχουν Επαναλαμβανόμενες Τάξεις για αυτό το Είδος Τάξης",
  "registeredToSeriesSuccessfully": "Εγγραφή στην Επαναλαμβανόμενη Τάξη με Επιτυχία!",
  "futureRegistrations": "Μελλοντικές Εγγραφές",
  "youWillRemoveThisMemberFromTheseClasses": "Πρόκειται να αφαιρέσεις αυτό το μέλος απο αυτή την επαναλαμβανόμενη τάξη, είσαι σίγουρος πως θέλεις να προχωρήσεις;",
  "userWasRemovedFromSelectedClasses": "Οι επιλεγμένες εγγραφές αφαιρέθηκαν με επιτυχία!",
  "selectAll": "Επιλογή Όλων",
  "searchForSeries": "Αναζήτηση Επαναλαμβανόμενης Τάξης",
  "searchForEndTime": "Αναζήτηση Ώρας Λήξης",
  "series": "Επαναλαμβανόμενη Τάξη",
  "sessionsEnd": "Μέχρι να τελειώσει το πακέτο συνδρομών",
  "membershipEnd": "Μέχρι το τέλος της συνδρομής",
  "editWorkoutPopup": "Επεξεργασία Τάξης",
  "isThisASeries": "Επαναλαμβανόμενη Τάξη;",
  "standByManagement": "Λίστα Αναμονής",
  "next": "Επόμενο",
  "membersRegistration": "Κατάσταση Εγγραφής",
  "transparent": "Δεν εμφανίζεται στην εφαρμογή;",
  "information": "Λεπτομέρειες Τάξης",
  "registeredMembers": "Εγγεγραμμένα Μέλη",
  "notTransparent": "Εμφάνιση Τάξης στην Εφαρμογή;",
  "recurringEvent": "Επαναλαμβανόμενη Τάξη",
  "notRecurringEvent": "Μοναδική Τάξη",
  "noMinimumAthleteSetting": "Χωρίς Ελάχιστο Αριθμό Συμμετέχοντων",
  "minimumAthleteSetting": "Με Ελάχιστο Αριθμό Συμμετέχοντων",
  "athletesUpTo": "συμμετέχοντες, μέχρι",
  "withoutDisableCancellation": "Μη περιορισμένη ακύρωση της ώρας πριν την τάξη ",
  "withoutEnableRegistration": "Περιορισμένη ακύρωση της ώρας πριν την τάξη ",
  "registerNewMember": "Εγγραφή μελών ή υποψήφιων πελατών στην τάξη",
  "cancelledRegisteredMembers": "Ακυρωμένες Εγγραφές",
  "renewClass": "Επαναφορά Τάξης",
  "removeSingleOrSeries": "Διαγραφή Τάξης",
  "removeSingleOrSeriesExplanation": "Θέλεις να διαγράψεις μόνο αυτήν την τάξη ή όλες τις μελλοντικές τάξεις σε αυτήν την σειρά; ",
  "cancelSingleOrSeries": "Ακύρωση Τάξης",
  "cancelSingleOrSeriesExplanation": "Θέλεις να ακυρώσεις μόνο αυτήν την τάξη ή όλες τις μελλοντικές τάξεις σε αυτήν την σειρά; ",
  "renewSingleOrSeries": "Επαναφορά Τάξης",
  "renewSingleOrSeriesExplanation": "Θέλεις να επαναφέρεις μόνο αυτήν την τάξη ή όλες τις μελλοντικές τάξεις σε αυτήν την σειρά; ",
  "updateSingleOrSeries": "Ενημέρωση Τάξης",
  "updateSingleOrSeriesExplanation": "Θέλεις να ενημερώσεις μόνο αυτήν την τάξη ή όλες τις μελλοντικές τάξεις σε αυτήν την σειρά; ",
  "onlyThisOne": "Μόνο Αυτήν την Τάξη",
  "allOfFutureEvens": "Όλες τις Μελλοντικές Τάξεις",
  "registeredDate": "Ώρα Εγγραφής",
  "cancelledDate": "Ώρα Ακύρωσης",
  "cancelledBy": "Ακυρώθηκε απο",
  "addToSchedule": "Πρόσθεσε",
  "noOneSignedUpYet": "Δεν Υπάρχουν Εγγραφές",
  "enteredDate": "Ώρα Εγγραφής",
  "restrictions": "Περιορισμοί στην Τάξη",
  "addColorToCategoryForCalendar": "Διάλεξε Χρώμα",
  "waitingListIsEmpty": "Λίστα Αναμονής Άδεια",
  "fromDate": "Από",
  "order": "Σειρά",
  "saveNewOrder": "Αποθήκευση Νέας Σειράς",
  "reorder": "Επανατοποθέτηση",
  "confirm": "Επιβεβαίωση",
  "day-1": "Κυριακή",
  "day-2": "Δευτέρα",
  "day-3": "Τρίτη",
  "day-4": "Τετάρτη",
  "day-5": "Πέμπτη",
  "day-6": "Παρασκευή",
  "day-7": "Σάββατο",
  "registerNewStandby": "Προσθέστε",
  "waitlistThresholdHourEditTitle": "Λίστα Αναμονής",
  "enableLateCancellation": "Ενεργοποίηση Εκπρόθεσμης Ακύρωσης",
  "withoutenableLateCancellation": " Απενεργοποίηση Εκπρόθεσμης Ακύρωσης",
  "withoutExtraRegistrationTime": "Χωρίς επιπλέον ώρα",
  "ExtraRegistrationTime": "Προσθέστε επιπλέον ώρα",
  "ExtraRegistrationTimeHoursBefore": "Επιπλέον ώρα πριν το μάθημα",
  "hasWaiver": "Υπέγραψε Αποποίηση Ευθύνης",
  "dateWaiver": "Ημερομηνία Εγγραφής",
  "hasWaiverReportTitle": "Υπογράφων την Αποποίηση Ευθυνών",
  "lateCancellationDataReportTitle": "Άτομα με Εκπροθεσμή Ακύρωση",
  "searchForMembershipTypeName": "Αναζήτηση ανά είδός Συνδρομής",
  "searchForScheduleName": "Αναζήτηση ανά είδος μαθήματος",
  "searchForUserCancelDate": "Αναζήτηση ημερών ακύρωσεων",
  "showingClassesDefinedTitle": "Εμφάνιση Μαθημάτων ανά Εβδομάδα",
  "showingClassesWeekAgo": "Προηγούμενςς Εβδομάδες",
  "showingClassesDayAgo": "Ενεργοποίηση",
  "showingClassesTimeAgo": "Από",
  "unlimitedShowingClasses": "Εμφάνιση όλων των μαθημάτων ανά Εβδομάδα",
  "accountSettingsCalendar": "Ρυθμίσεις Προγράμματος",
  "waitlistThresholdHour": "Διακοπή τροφοδότησης από λίστα αναμονής",
  "waitlistEnteringHoursBefore": "Σύνολο ωρών πριν το μάθημα",
  "limitedShowingClasses": "Εμφάνιση μαθημάτων ανά εβδομάδα από",
  "showingClassesWeekAgoLabel": "Πόσες εβδομάδες πρίν:",
  "showingClassesDayAgoLabel": "Ενεργό:",
  "showingClassesTimeAgoLabel": "Από:",
  "lateCancellationReport": "Άτομα με Εκπροθεσμή Ακύρωση",
  "waiverReport": "Υπογράφων την Αποποίηση Ευθυνών",
  "seriesNameAttendance": "Όνομα Επαναλαμβανόμενου Μαθήματος",
  "renewDate": "Ημερομηνία Αγοράς",
  "searchForRenewDate": "Αναζήτηση για ημέρομηνία ανανέωσης",
  "renewReport": "Ανανεώσεις",
  "activeMembersTitle": "Ενεργά μέλη",
  "renewReportTitle": "Ανανεώσεις",
  "youCanNotSuspensionOnUserSuspended": "Δεν μπορέις να αναστήλεις την συνδρομή γιατί το μέλος έχει διακόψει.",
  "editSuspend": "Επεξεργασία Διακοπής",
  "startDateMustToBeBefoerEndDate": "Η ημερομηνία έναρξης της Αναστολής πρέπει να είναι μετά την ημερομηνία λήξης της αναστολής",
  "areUSureThatCancelSuspend": "Είστε σίγουροι ότι θέλετε να διακόψετε την αναστολή αυτού του πελάτη;",
  "scheduleLocation": "Τοπθεσία Ομαδικού",
  "hasBasicsWorkshop": "Βασικές Συνεδρίες",
  "hasNutritionCounseling": "Διατροφική Συμβουλετική",
  "hasProfessionalMeeting": "Επαγγελαμτική Συνάντηση",
  "hasInsurance": "Ασφάλεια",
  "checkboxesUserReport": "Λεπτομέρειες Μέλους",
  "checkboxesUserReportTitle": "Λεπτομέρειες Μέλους",
  "searchForMembershipStart": "Αναζήτηση Ημερομηνίας Έναρξης ",
  "memberDetailsPopup": "Προσωπικά Στοιχεία",
  "memberMembershipDetailsPopup": "Προσωπικά Στοιχεία",
  "errorTextOnEditAddMember": "Παρακαλώ Συμπληρώστε τα Απαραίτητα Στοιχεία: Όνομα, Επίθετο, Email και Φύλο",
  "recurringSalesCreateAt": "Δημιουργηθηκε",
  "recurringSalesBillingAmount": "Ποσό",
  "recurringSalesBillingEndDate": "Ημερομηνία Λήξης",
  "recurringSalesChargeAt": "Ημερομηνία Χρέωσης",
  "recurringSalesCreditCard": "Πιστωτική Κάρτα",
  "recurringSalesIsActive": "Ενεργή Πώληση",
  "cancelRecurringSaleTextConfirm": "Είστε Σίγουρος ότι Θέλετε να Ακυρώσετε την Πώληση?",
  "recurringSalesRivhit": "Επαναλαμβανόμενες Πωλήσεις",
  "hasMedicalCert": "Ιατρικό Πιστοποιητικό",
  "allTasks": "Όλες οι Εργασίες",
  "allLocations": "Όλες οι Τοποθεσίες",
  "advanced": "Advanced",
  "freeText": "Eλεύθερο κείμενο",
  "publishWorkoutTitlePlaceholder": "Τίτλος (προαιρετικά)",
  "publishWorkoutFreeTextPlaceholder": "Γράψτε τη προπόνηση σας ή παρατηρήσεις (σχόλια) εδώ...",
  "totalRounds": "Σύνολο γύρων",
  "results": "Αποτέλεσμα",
  "scaled": "Κλιμάκωση",
  "rx": "RX",
  "minutes": "Λεπτό",
  "invalidSectionPublishWorkout": "Σε ορισμένα σημεία λείπουν μέρη του τμήματος,παρακαλώ συμπληρώστε τα...",
  "invalidSkillPublishWorkout": "Some fields are missing in the Skill part, please fill them.",
  "percentageRm": "% from RM1",
  "hourClean": "Ώρα",
  "registerTheClientTo": "Κλείσε τον πελάτη να",
  "futureClasses": "Μελλοντικές κρατήσεις",
  "chooseRegistrationWay": "Επιλέξτε τη μέθοδο κράτησης",
  "startRegistrationFrom": "Ξεκίνα από",
  "recurringRegisterForFutureClasses": "Επαναλαμβανόμενες κρατήσεις",
  "expiringSessionsPacks": "Πακέτα συνεδριών",
  "membershipSessionExpiring": "Λήξη μελών",
  "searchForFutureClasses": "Αναζήτηση",
  "userAlreadyRegisterToClass": "Ο πελάτης έχει ήδη εγγραφεί σε μία ή περισσότερες κατηγορίες που έχετε επιλέξει....",
  "pleaseChooseOneOption": "Παρακαλώ επιλέξτε μία επιλογή",
  "membershipExpiringtab": "Σχέδια",
  "seriesMemberSignUp": "Επιλογή μαθήματος",
  "settingsMemberSignUp": "Κράτηση,εγγραφή",
  "UserExistInBox": "Το e mail  που προσπαθείτε να προσθέσετε χρησιμοποιείται ήδη από έναν πελάτη στο γυμναστήριο σας...",
  "userCantEditEmail": "Αυτός ο χρήστης έχει ήδη συνδεθεί από την  εφαρμογή Arbox, αλλάζοντας τη διεύθυνση ηλεκτρονικού ταχυδρομείου θα προκαλέσει προβλήματα σύνδεσης, για περαιτέρω πληροφορίες, παρακαλείστε να επικοινωνήσετε με support@arboxapp.com",
  "doNotUpdateUserProperty": "Κλείσιμο χωρίς ενημέρωση",
  "updateUserProperty": "Ενημερώστε τα στοιχεία του χρήστη",
  "doYouWantToUpdateUserProperty": "Eνημέρωσε μερικά από τα στοιχεία του, θέλετε να τα ενημερώσετε;",
  "limit": "Όριο",
  "frequency": "Συχνότητα",
  "sessionAmount": "Ποσό πακέτου",
  "definition": "Σύνολο",
  "inBetween": "και",
  "allowRegisteringOnlyForClassType": "Να επιτρέπεται η κράτηση μόνο για...",
  "limitRegisterFrequency": "Allow class frequency",
  "limitClassHoursBetween": "Περιορίστε τις ώρες μεταξύ των αιθουσών",
  "specialProperties": "Ιδιαιτερότητες χαρακτηριστικών",
  "addExtraRegistrationTime": "Επιπλέον ώρες κράτησης πριν το μάθημα.",
  "memberTypes": "Τύποι μελών",
  "businessSettings": "Επιχειρηματικές ρυθμίσεις",
  "editSessionPackHeader": "Επεξεργασία πακέτου συνεδριών",
  "editPlanPackHeader": "Επεξεργασία τύπου μελών",
  "addNewPlanPackHeader": "Δημιουργία νέου τύπου μελών",
  "addNewSessionPackHeader": "Δημιουργία νέου πακέτου συνεδριών",
  "deletedSuccessfully": "Διαγράφηκε με επιτυχία",
  "deleteWaringTaskType": "Είστε σίγουροι ότι θέλετε να διαγράψατε αυτού του τύπου εργασίας; ",
  "deleteWaringMembershipTypePlan": "Είστε βέβαιοι ότι θέλετε να διαγράψετε αυτού του τύπου μέλος;",
  "deleteWaringMembershipSession": "Είστε σίγουροι ότι θέλετε να διαγράψετε το πακέτο των συνεδριών;",
  "deleteWaringBoxStatuses": "Είστε βέβαοι ότι θέλετε να διαγράψετε αυτή την κατάσταση;",
  "deleteWaringBoxSources": "Είστε σίγουροι ότι θέλετε να διαγράψετε αυτή την πηγή;",
  "deleteWaringBoxCategories": "Είστε σίγουροι ότι θέλετε να διαγράψετε αυτού του τύπου πρόγραμμα;",
  "permission": "Άδεια, έγκριση",
  "permissions": "Δικαιώματα",
  "personalDetails": "Προσωπικά στοιχεία",
  "addNewSystemUser": "Προσθήκη χρήστη",
  "editSystemUser": "Επεξεργασία χρήστη",
  "BOXADMIN": "Κάτοχος",
  "COACH": "Προποπονητής",
  "SECRETARY": "Γραμματέας",
  "MANAGER": "Διαχειριστής",
  "SALESMANAGER": "Υπεύθυνος Πωλήσεων",
  "SALESMAN": "Πωλήτης",
  "SERVICE": "Εξυπηρέτηση",
  "RECEPTIONLIST": "Υπεύθυνος υποδοχής",
  "BOXADMINPermissionHeader": "Ιδιοκτήτης",
  "BOXADMINPermissionInfo": "Αυτή η άδεια δίνει πλήρη πρόσβαση στο σύστημα. Ο χρήστης μπορεί να προσθέσει άλλους χρήστες και να κάνει οποιεσδήποτε προσθήκες, διορθώσεις ή διαγραφές σε όλα τα εργαλεία του συστήματος διαχείρισης.  ",
  "MANAGERPermissionHeader": "Διευθυντής",
  "MANAGERPermissionInfo": "Αυτή η άδεια δίνει πλήρη πρόσβαση στο σύστημα. Ο χρήστης μπορεί να προσθέσει άλλους χρήστες και να κάνει οποιεσδήποτε προσθήκες, διορθώσεις ή διαγραφές σε όλα τα εργαλεία του συστήματος διαχείρισης.  ",
  "SALESMANAGERPermissionHeader": "Υπεύθυνος πωλήσεων",
  "SALESMANAGERPermissionInfo": "This permission gives the user an almost full access to the system. The user will see the dashboard, clients, leads, reports and schedule",
  "SALESMANPermissionHeader": "Salesman:",
  "SALESMANPermissionInfo": "Αυτές οι άδειες δίνουν πρόσβαση στο σύστημα διαχείρισης για όλα τα τμήματα που σχετίζονται με τους ανώτερουςσυμπεριλαμβανομένων των προφίλ τους, των συζητήσεων τους, των κρατήσεων τους για τις αίθουσες.Επίσης, το προφίλ του πελάτη και οι ανανεώσεις των συνδρομών  των μελών μέλη είναι προσβάσιμες.",
  "SERVICEPermissionHeader": "Υποστήριξη",
  "SERVICEPermissionInfo": "Αυτή η άδεια δίνει στον χρήστη την πρόσβαση για όλα τα τμηματα που σχετίζονται με τους πελάτες, προσελκύοντας νέους πελάτες, ανανεώνοντας συνδρομές, επεξεργάζοντας τα στοιχεία πελάτη και να λαμβάνεις πληρωμές. Επίσης, δίνει πρόσβαση στο πρόγραμμα του γυμναστηρίου. ",
  "RECEPTIONLISTPermissionHeader": "Υπεύθυνος υποδοχής.",
  "RECEPTIONLISTPermissionInfo": "Αυτή η άδεια δίνει πολύ μικρή πρόσβαση στο σύστημα. Ο χρήστης μπορεί μόνο να βλέπει τα προφί των πελατών, χωρίς καμία δυνατότητα να κάνει κάποια ενέργεια. Ο χρήστης μπορεί να κάνει κράτηση θέσης στην αίθουσα για τον  πελάτη και να ελέγχει το πρόγραμμα.",
  "SECRETARYPermissionHeader": "Service:",
  "SECRETARYPermissionInfo": "This permission gives minimal access to the system. The user can only look on clients' profile with no possibilty to do any actions. The user will be able to book clients to classes and check schedule",
  "COACHPermissionHeader": "Προπονητής",
  "COACHPermissionInfo": "Αυτή η άδεια δίνει στον χρήστη την πρόσβαση για να δημοσιεύει και να βλέπει τπ πρόγραμμα προπονήσεων της ημέρας. Ο χρήστης επίσης μπορεί να δηλώσει την παρουσία (των μελών) στην αίθουσα και να δηλωθεί σαν προπονητής των τάξεων.",
  "systemUsers": "Χρήστες",
  "club": "Λέσχη, γυμναστήριο",
  "sales": "Πωλήσεις",
  "taskCharacter": "Είδος εργασίας ",
  "user": "Χρήστης",
  "general": "Γενικά",
  "allSystemUsers": "Όλοι οι χρηστές",
  "editTaskHeader": "Δουλειά επεξεργασίας",
  "addNewTaskHeader": "Δημιουργία εργασίας",
  "selectSystemUser": "Επιλογή χρήστη",
  "searchLeadOrMember": "Αναζήτηση επικεφαλής ή μέλους",
  "undone": "Μη ολοκληρωμένο",
  "uploadImage": "Αναρτώ το σήμα της εταιρείας.",
  "auditAddNewClient1": "Προστέθηκε.",
  "auditAddNewClient2": " Στο σύστημα σαν πελάτης.",
  "auditAddNewLead1": "Προστέθηκε.",
  "auditAddNewLead2": "Στο σύστημα σαν επικεφαλής.",
  "auditNewsActions1": "Δημοσιεύτηκε ένα καινούργιο μήνυμα.",
  "auditNewsUpdate1": "Επεξεργασία νέων.",
  "auditNewsDeleted1": "Διαγραφεί νέων.",
  "auditAddNewTask1": "Δημιουργία τύπου εργασίας.",
  "auditAddNewTask2": "αναφορικά (με)...",
  "auditAddNewTask3": "",
  "auditLeadConvertToMember1": "μετέτρεψε",
  "auditLeadConvertToMember2": "σε ένα μέλος.",
  "auditEditLead1": "Επεξεργάστηκε.",
  "auditEditLead2": "",
  "auditLeadReviveLeadOrLost1": "Άλλαξε την κατάσταση του ",
  "auditLeadReviveLeadOrLost2": "",
  "auditDeleteLead1": "Deleted the lead ",
  "auditDeleteLead2": "",
  "auditLeadStatusChange1": "Άλλαξε την κατάσταση του",
  "auditLeadStatusChange2": "",
  "auditLeadAddNewTask1": "Added task of type",
  "auditLeadAddNewTask2": "Σχετικά με...",
  "auditLeadAddNewTask3": "",
  "auditLeadEditTask1": "Αναβάθμιση",
  "auditLeadEditTask2": "",
  "auditEditClient1": "Επεξεργασία του πελάτη",
  "auditEditClient2": "",
  "auditDeleteClient1": "Διαγραφή του πελάτη",
  "auditDeleteClient2": "",
  "auditConvertedToCoach1": "Μετατροπή του πελάτη",
  "auditConvertedToCoach2": "να προπονήσει...",
  "auditActiveClient1": "Ενεργοποιήθηκε",
  "auditActiveClient2": "",
  "auditAeactiveClient1": "Απενεργοποιήθηκε..",
  "auditAeactiveClient2": "",
  "auditResetPasswordClient1": "Στείλτε έναν σύνδεσμο επαναφοράς κωδικού πρόσβασης στον πελάτη",
  "auditResetPasswordClient2": "",
  "auditMemberEditSessions1": "Επεξεργασία του αριθμού των συνεδριών για τον πελάτη",
  "auditMemberEditSessions2": "το πακέτο",
  "auditMemberEditSessions3": "",
  "auditMemberCancelMembership1": "Άκυρη η...",
  "auditMemberCancelMembership2": "η συμμετοχή των μελών",
  "auditMemberCancelMembership3": "",
  "auditMemberCancelMembershipSuspension1": "Ακυρώθηκε η κράτηση",
  "auditMemberCancelMembershipSuspension2": "στα μέλη",
  "auditMemberCancelMembershipSuspension3": "",
  "auditMemberEditSuspension1": "Επεξεργασία της αναστολής",
  "auditMemberEditSuspension2": "στο μέλος",
  "auditMemberEditSuspension3": "",
  "auditMemberAddSuspension1": "Διακοπή του",
  "auditMemberAddSuspension2": "των μελών",
  "auditMemberAddSuspension3": "",
  "auditMemberRestrictMembership1": "Περιορισμός του πελάτη",
  "auditMemberRestrictMembership2": "από την κράτηση",
  "auditMemberCancelRestrictMembership1": "Ακυρώθηκε ο περιορισμός της κράτησης του...",
  "auditMemberCancelRestrictMembership2": "",
  "auditMemberRenewMembership1": "Ανανέωσε το μέλος ",
  "auditMemberRenewMembership2": " τη, του..",
  "auditMemberRenewMembership3": "",
  "memberEditMembershipDates1": "Επεξεργασία της ημερομηνίας",
  "memberEditMembershipDates2": "των μελών",
  "memberEditMembershipDates3": "",
  "auditMemberAddNewTask1": "Προσθήκη νέων καθηκόντων ",
  "auditMemberAddNewTask2": " σχετικά με",
  "auditMemberAddNewTask3": "",
  "auditMemberEditTask1": "Ενημέρωση εργασιών",
  "auditMemberEditTask2": "σχετικά με",
  "auditMemberEditTask3": "",
  "auditScheduleAddAthleteToClass1": "Προσθήκη ",
  "auditScheduleAddAthleteToClass2": "στην",
  "auditScheduleAddAthleteToClass3": "αίθουσα",
  "auditScheduleAddAthleteToWaitingList1": "Προσθήκη",
  "auditScheduleAddAthleteToWaitingList2": "στη λίστα αναμονής",
  "auditScheduleAddAthleteToWaitingList3": "αίθουσα",
  "auditPublishWorkoutPublishWorkout1": "Δημοσίευση προπόνησης για ",
  "auditPublishWorkoutPublishWorkout2": "",
  "auditPublishWorkoutEditWorkout1": "Επεξεργασία προγράμματος (προπόνησης)",
  "auditPublishWorkoutEditWorkout2": "",
  "auditPublishWorkoutDeleteWorkout1": "Διαγραφή προγράμματος στο ",
  "auditPublishWorkoutDeleteWorkout2": "",
  "auditBoxSectionActions1": "Προσθήκη/Επεξεργασία ενότητας",
  "auditBoxSectionActions2": "",
  "auditAddNewSystemUser1": "Προστέθηκε",
  "auditAddNewSystemUser2": "Στο σύστημα ως χρήστης",
  "auditEditSystemUser1": "Επεξεργασία του χρήστη",
  "auditEditSystemUser2": "",
  "auditMembershipTypeActions1": "Προσθήκη μέλους",
  "membershipTypeActions2": "",
  "auditBoxStatusActions1": "Προσθήκη/Επεξεργασία ιδιότητας προφίλ",
  "auditBoxStatusActions2": "",
  "auditBoxSourceActions1": "Προσθήκη/Επεξεργασία πηγής ",
  "auditBoxSourceActions2": "",
  "auditBoxCategoryActions1": "Προσθήκη/Επεξεργασία κατηγορίας",
  "auditBoxCategoryActions2": "",
  "auditTaskTypeActions1": "Προσθήκη/Eπεξεργασία τύπου εργασίας ",
  "auditTaskTypeActions2": "",
  "auditCheckin1": "Ελέγχεται μέσα",
  "auditCheckin2": "στην αίθουσα",
  "auditCheckin3": "",
  "auditCancelCheckin1": "Ακυρώθηκε η έλευση του ",
  "auditCancelCheckin2": "στην αίθουσα",
  "auditCancelCheckin3": "",
  "auditAddToClass1": "Προστέθηκε",
  "auditAddToClass2": "στην αίθουσα",
  "auditAddToClass3": "",
  "auditDeleteFromClass1": "Διαγράφηκε",
  "auditDeleteFromClass2": "από την αίθουσα",
  "auditDeleteFromClass3": "",
  "auditConvertCoach1": "Μετατροπή του χρήστη",
  "auditConvertCoach2": "στο μέλος",
  "auditScheduleCancelClass1": "Ακυρώθηκε το ",
  "auditScheduleCancelClass2": "Αίθουσα",
  "auditScheduleDeleteClass1": "Διαγράφηκε στην",
  "auditScheduleDeleteClass2": " αίθουσα",
  "auditScheduleAddNewClass1": "Προσθήκη",
  "auditScheduleAddNewClass2": "αίθουσα",
  "auditScheduleEditClassDetails1": "Επεξεργασία της",
  "auditScheduleEditClassDetails2": "αίθουσας",
  "auditMemberDeleteTask1": "Διαγραφή έργο τύπου ",
  "auditMemberDeleteTask2": "σχετικά με",
  "auditMemberDeleteTask3": "",
  "actionHistory": "Ενεργή",
  "deleteSystemUserApprove": "Είστε βέβαιοι ότι θέλετε να διαγράψατε τον χρήστη από το σύστημα;",
  "deleteSystemUserSuccess": "Ο χρήστης διαγράφηκε με επιτυχία από το σύστημα!",
  "nonactive": "Not Active",
  "memberOfTheClubAsOfDate": "Μέλος από:",
  "membershipTypeAttendance": "Συμμετοχή",
  "dateOfBuyMembership": "Ημερομηνία αγοράς",
  "membershipsTypeTitle": "Μέλη",
  "newSuspension": "Νέα διακοπή",
  "existsSuspension": "Τρέχων διακοπή",
  "isRestricted": "Περιορισμένη",
  "entersMembership": "Εισαγωγή",
  "lateCancellationMembertship": "Καθυστέρηση ακύρωσης",
  "attendenceMembership": "Συμμετοχή",
  "createdAtSuspend": "Νέα Αναμονή",
  "memberEditModeDetailsPopup": "Ιδιότητες πελατών",
  "createBy": "Γίνεται από",
  "userBiNotShowedUpThisWeek2": "Ήρθε τελευταία",
  "userBiMembershipIsAboutToEnd1": "σε",
  "userBiMembershipIsAboutToEnd2": "ημέρες συμμετοχής των μελών",
  "userBiMembershipIsAboutToEnd3": "Θα λήξει",
  "userBiSessionEnd1": "",
  "userBiSessionEnd2": "Συνεδρίες αριστερά στο...",
  "userBiSavgTraining2": "φοιτούν, ακολουθούν",
  "userBiSavgTraining3": "φορές την εβδομάδα κατά μέσο όρο...",
  "burnChip": "Εισάγετε chip id",
  "chipIdentifier": "Chip id",
  "remarks": "Παρατηρήσεις...",
  "burnChipSuccess": "Το chip αναγνωρίστηκε με επιτυχία  ",
  "userBiTitle": "Σκεφτήκαμε ότι θα πρέπει να γνωρίζετε ότι...",
  "membershipActive": "Ενεργό",
  "membershipNonactive": "Μη ενεργό",
  "syncItemsRivhitTitlePartOne": "בימים אלה אנו מבצעים שיפורים וחיזוקים בשיתוף הפעולה שלנו עם חברת ריווחית. לצורך השלמת מהלך זה, אנו מבקשים את שיתוף הפעולה שלכם בסנכרון הפריטים בין שתי המערכות. בעמודה מצד ימין מוצגים לכם סוגי המנויים והכרטיסיות שלכם במערכת ארבוקס ובצד שמאל עליכם לבחור את הפריט המתאים בריווחית. אנא הקדישו לנושא את מירב תשומת הלב, תודה רבה!",
  "syncItemsArboxItems": "פריטים בארבוקס",
  "syncItemsRivhitItems": "פריטים בריווחית",
  "syncItemsTotalPrice": "מחיר סופי",
  "syncItemsBtn": "סנכרן",
  "chooseItem": "בחר מוצר",
  "syncArboxItemsBtn": "סנכרן",
  "syncItemsRivhitTitlePartTwo": "כעת יוצגו לפניכם הפריטים שנותרו בריווחית ולא סונכרנו עם ארבוקס. הפריטים המסומנים ב-וי יתווספו למאגר המוצרים בארבוקס.",
  "memberTypesItems": "Προϊόντα",
  "addMemberhipTypeItem": "Προσθήκη προϊοντος",
  "addItem": "Προσθήκη Προϊόντος",
  "membershipTypeItemUpdated": "Επεξεργασμένο προϊόν",
  "editMemberhipTypeItem": "Επεξεργασία προϊόντος",
  "membershipItems": "Προϊόντα",
  "uAreSelectedSomeItemsTwice": "אחד המוצרים מריווחית, נבחר פעמיים, אנא שנה זאת כדי שנוכל לבצע את הסנכרון",
  "uMostSetAllPriceItems": "יש להגדיר סכום לכל הפריטים",
  "createNewRivhitItem": "תיצור פריט חדש בריווחית",
  "purchases": "Αγορές",
  "payment": "Πληρωμή",
  "paymentSummary": "Περίληψη",
  "purchaseSummary": "Σύνοψη αγοράς",
  "prev": "Πίσω",
  "endStages": "Έγινε, πραγματοποιήθηκε",
  "inPurchaseOccasion": "Πληρώνοντας τώρα ",
  "debt": "Χρέος",
  "debtSelected": "Χρέος",
  "debtUnSelected": "Ενεργό χρέος",
  "cashPurchase": "Αγορά χωρίς πληρωμή",
  "choosePaymentOption": "Επιλέξτε τρόπο πληρωμής",
  "discount": "Έκπτωση",
  "discountPercentage": "%",
  "paymentSum": "Συνολικό ποσό",
  "membershipTypeMustHavePrice": "Κάθε στοιχείο πρέπει να έχει μια τιμή",
  "newMembershipAdded": "Το μέλος προστέθηκε",
  "membershipDetailsUpdated": "Η συμμετοχή του μέλους ενημερώνεται",
  "noPaymentReceived": "Δεν έλαβε καμία πληρωμή",
  "partialPaymentReceived": "Έλαβε μερική πληρωμή",
  "accountedDebt": "Λογιστικό υπόλοιπο ή οφειλή",
  "toCustomer": "στο μέλος",
  "toDate": "Ημερομηνία λήξης",
  "dueDate": "Ημερομηνία",
  "writtenProof": "Γραπτή απόδειξη",
  "fullPaymentReceived": "Πλήρης πληρωμή που έλαβε",
  "debtSubTotal": "Συνολικό χρέος",
  "reduceOrFillDebt": "Μείωση του χρέους σε:",
  "closeCashPurchase": "Κλείσιμο χρέους χωρίς πληρωμή",
  "recurringSalePurchase": "Επαναλαμβανόμενη αγορά πώλησης",
  "paid": "επί πληρωμή",
  "toMonth": "κάθε μήνα",
  "toYear": "κάθε χρόνο",
  "inTotal": "σύνολο",
  "currencySymbol": "",
  "disapprovalWaiverTextBtn": "δεν συμφωνώ",
  "approvalWaiverTextBtn": "Συμφωνώ",
  "areUSureDisapprovalWaiver": "Δεν μπορείτε να προχωρήσετε χωρίς να υπογράψετε την παραίτηση",
  "paymentRivhitTablet": "Πληρωμή",
  "completedProcess": "Καλώς ήλθατε στην ομάδα μας! Η αλληλογραφία με κωδικό πρόσβασης και σύνδεσμο προς την εφαρμογή βρίσκεται προς την ολοκλήρωση.",
  "SIGNUPACCESS": "δημόσια διεπαφή ",
  "SIGNUPACCESSPermissionHeader": "δημόσια διεπαφή ",
  "SIGNUPACCESSPermissionInfo": "Ο χρήστης με αυτήν την άδεια επιτρέπεται να έχει πρόσβαση μόνο σε δημόσιες διεπαφές, όπως η σελίδα αυτόματης εγγραφής και η πλατφόρμα έλευσης",
  "menu": "Μενού",
  "wellcomeStartCreateUserTablet": "Καλώς ήλθατε, πρέπει να ξεκινήσουμε;",
  "startCreateUserTabletBtn": "Ξεκίνα εδώ!",
  "areUSureDisapprovalWaiverCancel": "Θέλω να υπογράψω, να με βάλεις πίσω",
  "approvalWaiver": "Waiver",
  "areUSureDisapprovalWaiverOk": "δεν το υπογράφω",
  "emailExistInBox": "Αυτό το μήνυμα ηλεκτρονικού ταχυδρομείου υπάρχει ήδη στην ομάδα, δοκιμάστε ένα άλλο μήνυμα ηλεκτρονικού ταχυδρομείου ή επικοινωνήστε με τον διαχειριστή",
  "medicalStatement": "Ιατρική δήλωση",
  "medicalStatementSetting": "Ιατρική δήλωση",
  "question": "Ερωτήσεις",
  "deleteWaringMedicalStatement": "Είστε βέβαιοι ότι θέλετε να διαγράψετε αυτήν την ερώτηση;",
  "addNewMedicalQuestion": "Προσθέστε νέα ιατρική ερώτηση",
  "allowMailingList": "Εγγραφείτε στη λίστα αλληλογραφίας",
  "allowSms": "Εγγραφείτε στη λίστα μηνυμάτων",
  "showInSignupPagePopupMembershipType": "Εμφάνιση στη σελίδα εγγραφής",
  "userProfileDetailsContact": "Στοιχεία επικοινωνίας",
  "userProfileDetailsLocation": "Στοιχεία διεύθυνσης",
  "userProfileDetailsInfo": "Ιδιότητες",
  "userProfileDetailsMedicalStatment": "Ιατρική δήλωση",
  "userProfileDetailsallowSms": "Εγγραφή στη λίστα αλληλογραφίας",
  "userProfileDetailsMailingList": "Εγγραφή στη λίστα μηνυμάτων",
  "answer": "Απάντηση",
  "products": "Προϊόντα",
  "receiptsAndDocuments": "חשבוניות וקבלות",
  "UserLogMembershipCreated": "Εντάχθει στην ομάδα",
  "UserLogMembershipRenew": "Ανανέωση μέλους",
  "UserLogMembershipLeadConverted": "Μετατροπή από οδηγό",
  "UserLogMembershipEditSessions": "Ο αριθμός των περιόδων σύνδεσης επεξεργάστηκε από",
  "UserLogMembershipUserSuspensionFor": "Κράτηση μέλους",
  "UserLogMembershipUserSuspensionChanged": "Οι ημερομηνίες κράτησης άλλαξαν",
  "UserLogBecauseOf": "Εξαιτίας",
  "UserLogMembershipUserSuspensionTotal": "Συνολικές ημερομηνίες κράτησης",
  "UserLogMembershipUserSuspensionCancel": "Ακυρώθηκε η κράτηση",
  "UserLogMembershipConvertedCoachToMember": "Ο προπονητής άλλαξε σε μέλος",
  "UserLogMembershipConvertedMemberToCoach": "Member was changed to member",
  "UserLogMembershipCancel": "Ακύρωσε το μέλος",
  "UserLogMembershipEditDates": "Οι ημερομηνίες των μελών τροποποιήθηκαν",
  "IncomeManagment": "Διαχείριση Χειροοικονομικών Χρημάτων",
  "IncomeManagmentButtonLabel": "Ενεργοποιήστε τη διαχείριση μη αυτόματων οικονομικών",
  "IncomeManagmentPopupInfo": "Το Arbox παρέχει τη δυνατότητα χειρωνακτικής διαχείρισης των εισοδημάτων και των αποτελεσμάτων",
  "Definition": "Ρυθμίσεις",
  "Debts": "Χρέη",
  "membershipPurchase": "Νέα αγορά",
  "settingsType": "Τύπος",
  "sentLinkOfSignUp": "Αποστολή σελίδας για εγγραφή",
  "sentLinkSignupSuccess": "Η σελίδα εγγραφής αποστέλλεται με επιτυχία",
  "chooseStartDate": "Επιλέξτε ημερομηνία έναρξης",
  "searchForDebt": "Αναζήτηση χρέους",
  "allowSmsPopup": "Εγγραφή στη λίστα μηνυμάτων",
  "allowMailingListPopup": "Εγγραφή στη λίστα αλληλογραφίας",
  "createUserTitlePopup": "Προσθήκη νέου μέλους",
  "renewMembershipTitlePopup": "Νέα αγορά",
  "debtReduceTitlePopup": "Ενημέρωση υπάρχοντος χρέους",
  "UserLogPurchaseAction": "Αγορά προϊόντων",
  "UserLogRenewAction": "Ανανέωση μέλους",
  "UserLogDebtReduceAction": "Χρέη",
  "UserLogConvertedToMember": "Επικεφαλής συνομιλίας",
  "UserLogCreatedNewAction": "",
  "UserLogNoteAction": "Σημείωση",
  "UserLogEditDatesAction": "Επεξεργασία ημερομηνιών",
  "UserLogSuspensionAction": "Ακύρωση",
  "UserLogEditSuspensionAction": "Επεξεργασία ανανέωσης",
  "UserLogCancelSuspensionAction": "Αναστολή ακύρωσης",
  "UserLogCancelAction": "Ακύρωση μέλους",
  "UserLogAndPayed": "επί πληρωμή",
  "UserLogPayedFor": "για",
  "UserLogAndPurchased": "Αγοράστηκε",
  "UserLogIn": "μέσα",
  "UserLogDebtWasRecorded": "Υπολοιπόμενο χρέος",
  "UserLogPartialMode": "εν μέρει",
  "UserLogOf": "εκτός",
  "UserLogRecurringSalesOptions": "Καταβολή επαναλαμβανόμενης πληρωμής",
  "UserLogNoReceiptPaymentOptions": "Δεν πληρώθηκε",
  "UserLogConvertToMember": "Το μέλος μετατράπηκε σε μέλος",
  "UserLogAnd": "και ",
  "UserLogTheClient": "το μέλος",
  "UserLogFromDebtBeforeChagne": "εκτός",
  "UserLogTotalNewDebt": "Το νέο υπολοιπόμενο χρέος είναι",
  "UserLogMembershipUserSuspensionedFor": "Η ιδιότητα του μέλους έγινε",
  "UserLogUpdatedTo": "ενημερώθηκε στο",
  "UserLogAndNowIs": "και τώρα είναι",
  "UserLogMembershipUserSuspensionCancelDateIsBackTo": " Η ημερομηνία λήξη του μέλους επιστρέφει στην αρχική ημερομηνία",
  "UserLogMembershipCancelNewEndDate": "Η νέα ημερομηνία συμμετοχής είναι:",
  "UserLogRestrictedAction": "Περιορισμός μελών",
  "UserLogRestrictedUser": "Περιορισμός μελών απο τις κατηγορίες κρατήσεων ",
  "UserLogUnrestrictedAction": "Απεριόριστα",
  "UserLogUnrestrictedUser": " Το μέλος απελευθερώθηκε για την κράτηση μαθημάτων",
  "UserLogSentLinkOfSignUpLead": "Η σελίδα υπογραφής στάλθηκε",
  "UserLogRevivedLead": "Επιστροφή στη δράση",
  "UserLogCreatedLead": "",
  "UserLogLostLead": "Lead marked as lost",
  "remainingDebt": "Υπολοιπόμενο χρέος",
  "recurringSalesPurchase": "Μην ξεχάσετε να ορίσετε μια επαναλαμβανόμενη πληρωμή!",
  "searchForPrice": "Αναζήτηση βάσει τιμής",
  "searchForStaff": "Αναζήτηση ανά χρήστη",
  "UserLogDetailsAction": "Περιγραφή",
  "paymentRivhit": "Πληρωμή",
  "selectDocumentType": "בחר סוג מסמך",
  "taxInvoiceReceipt": "חשבונית מס קבלה",
  "rejectedReceipt": "קבלת דחויים",
  "taxInvoiceReceiptCreated": "הופקה חשבונית מס קבלה מס'",
  "receiptCreated": "הופקה קבלה מס'",
  "rejectedReceiptCreated": "חשבוניות המס יופקו בתאריכי הפירעון",
  "activePlainMembers": "Ενεργοί Πελάτες",
  "dashboardTotalMonthlySales": "Συνολικό Μηνιαίο Εισόδημα",
  "dashboardOpenDebts": "Ανοιχτά χρέη",
  "dashboardTodayTrainers": "Παρακολουθήστε σήμερα",
  "dashboardNoTasksToday": "Δεν υπάρχουν εργασίες για σήμερα",
  "dashboardNoTasksTodaySubText": "",
  "dashboardNoSchedulesToday": "Δεν υπάρχουν εργασίες για σήμερα",
  "dashboardOpenLeads": "Ανοιχτές οδηγίες",
  "dashboardNoSchedulesTodaySubText": "",
  "dashboardLeadsRegisterForTrial": "Δοκιμαστικές κατηγορίες",
  "registerUserToScheduleOutSideDate": "Η αίθουσαδεν είναι κατά τις ημερομηνίες προσέλευσης",
  "future": "Μέλλον",
  "dashboardNoOpenLeads": "Όχι ανοιχτές οδηγίες",
  "dashboardNoOpenLeadsSubText": "Ξεκινήστε τη διαχείριση των πελατών, θα σας κάνει καλύτερο!",
  "holds": "Κρατάω",
  "createNewHold": "Νέα αναμονή",
  "editHold": "Επεξεργασία αναμονής",
  "membershipHoldDatesNotAvailable": "The chosen dates are during another existing hold dates",
  "membershipHoldCancelAreYouSure": "Είστε βέβαιοι ότι θέλετε να ακυρώσετε αυτήν την κράτηση;",
  "membershipHoldsNotFound": "Οποιοδήποτε μέλος δεν έχει βρεθεί",
  "membershipHoldRemoveFromScheduleUserWarning": "Αυτό θα ακυρώσει τις κρατήσεις αυτού του πελάτη κατά τη διάρκεια αυτής της περιόδου",
  "noReceiptPayment": "Χωρίς πληρωμή",
  "leadsDistribution": "Οδηγίες",
  "separatedPayment": "Πληρώστε ξεχωριστά",
  "separatedPaymentInfo": "Θα πρέπει να τα δημιουργήσετε ξεχωριστά",
  "searchForNameField": "Αναζήτηση βάσει ονόματος",
  "searchForStandByAmount": "Αναζήτηση αναμονής",
  "usersEnters": "τίθεται",
  "searchForEnterByHour": "Αναζήτηση με ώρα εισόδου",
  "missingUsersEnters": "Missing by enters",
  "noteFutureMembership": "Το μέλος αρχίζει από:",
  "noteAction": "Σημείωση",
  "emailAlreadyExistsException": "This email already exists in your club. It might be deleted in the past. if it's the situation, please contact us",
  "multiUserChangeEmailException": "Δεν μπορείτε να επεξεργαστείτε την αλληλογραφία αυτού του πελάτη, παρακαλώ επικοινωνήστε μαζί μας για αυτό.",
  "resendWelcomeMail": "Στείλτε ξανά το μήνυμα καλωσορίσματος",
  "resendWelcomeMailEmailSent": "Το μήνυμα αποστέλλεται με επιτυχία!",
  "resendWelcomeMailWarningText": "Είστε βέβαιοι ότι θέλετε να στείλετε ξανά ένα μήνυμα καλωσορίσματος;",
  "cancelledClass": "Ακυρώθηκε",
  "activeClass": "Λαμβάνει χώρα",
  "age": "Ηλικία",
  "searchByAge": "Αναζήτηση ανά ηλικία",
  "smsApprove": "Εγγραφή μηνύματος",
  "mailingApprove": "Εγγραφή αλληλογραφίας",
  "preference": "Προτιμήσεις",
  "displayUserInjuriesOnCheckIn": "Show clients' injuries on checkin platform?",
  "displayUserInjuriesOnCheckInPopUpHeader": "Show clients' injuries on checkin platform",
  "displayUserInjuriesOnCheckInPopUpButtonLabel": "Οι τραυματισμί εμφανίζοντι απενεργοποιημένοι",
  "displayUserInjuriesOnCheckInPopUpButtonLabelOff": "Οι τραυματισμοί εμφανίζονται ενεργοποιημένοι",
  "displayUserInjuriesOnCheckInPopUpInfo": "Μπορείτε να επιλέξετε να εμφανίσετε τους τραυματισμούς των πελατών σας για τους προπονητές σας, ελέγχοντας την πλατφόρμα",
  "limitDays": "Να επιτρέπεται η κράτηση μόνο σε συγκεκριμένες ημέρες",
  "restrictType": "Τύπος ιδιοκτησίας",
  "FREQUENCY": "Μόνο συχνότητα",
  "CLASS_FREQUENCY": "Κατά κατηγορία και συχνότητα",
  "hyphenTo": "μέχρι και ",
  "membershipTypePropTh": "ειδικές ιδιότητες",
  "DAY": "Ημέρα",
  "WEEK": "Εβδομάδα",
  "MONTH": "Μήνας",
  "YEAR": "Χρόνος",
  "limitFreeSpace": "Κάντε κράτηση στον ελεύθερο χώρο",
  "limitFreeSpace1": "Να επιτρέπεται η κράτηση πέρα από το όριο",
  "limitFreeSpace2": "Αίθουσες",
  "limitFreeSpace3": "ώρες πριν από την αίθουσα",
  "limitLocations": "Να επιτρέπεται η κράτηση μόνο σε τοποθεσία",
  "taskPast": "Καθυστερημένη εργασία",
  "taskFuture": "Μελλοντικά καθήκοντα",
  "taskToday": "Σημερινό καθήκον",
  "taskNone": "Δεν υπάρχει εργασία, καμία εργασία",
  "priceAfterDiscount": "Τελική τιμή",
  "salePaymentType": "Τύπος πληρωμής",
  "saleType": "Τύπος πώλησης",
  "searchForDiscount": "Αναζήτηση με έκπτωση",
  "saleDate": "Ημέρα πώλησης",
  "salesReportItem": "Εγγραφή, στοιχείο",
  "membershipTypePropClassType1": "Η ιδιότητα μέλους αυτού του μέλους δεν του επιτρέπει να κάνει κράτηση κατηγοριών\n",
  "membershipTypePropClassType2": ". Do you want to book him anyway?",
  "membershipTypePropFrequency1": "This member's membership doesn't allow him to book classes more than",
  "membershipTypePropFrequency2": " φορές ετησίως ή χρόνος ανά ",
  "membershipTypePropFrequency3": "Θέλετε να τον κάνετε κράτηση ούτως ή άλλως;",
  "membershipTypePropHours1": "Η ιδιότητα του μέλους αυτού δεν του επιτρέπει να κάνει κράτηση σε αυτές τις ώρες. Θέλετε να τον κλείσετε έτσι κι αλλιώς;",
  "membershipTypePropDays1": "This member's membership doesn't allow him to book classes on ",
  "membershipTypePropDays2": ". Do you want to book him anyway?",
  "membershipTypePropClassFrequency1": "This member's membership doesn't allow him to book classes of type",
  "membershipTypePropClassFrequency2": "Περισσότερα από ",
  "membershipTypePropClassFrequency3": "times per",
  "membershipTypePropClassFrequency4": "Θέλετε να τον κάνετε κράτηση ούτως ή άλλως;",
  "membershipTypePropLocation1": "Η ιδιότητα του μέλους αυτού δεν του επιτρέπει να κλείνει μαθήματα",
  "membershipTypePropLocation2": "Θέλετε να τον κάνετε κράτηση ούτως ή άλλως;",
  "selectYear": "Χρόνος",
  "leadsStatistics": "Οδηγίες στατιστικής",
  "month01": "Ιανουάριος",
  "month02": "Φεβρουάριος",
  "month03": "Μάρτιος",
  "month04": "Απρίλιος",
  "month05": "Μάϊος",
  "month06": "Ιούνιος",
  "month07": "Ιούλιος",
  "month08": "Αύγουστος",
  "month09": "Σεπτέμβριος",
  "month10": "Οκτώβριος",
  "month11": "Νοεμβριος",
  "month12": "Δεκέμβριος",
  "createdLeads": "Εισήχθησαν οδηγοί\n",
  "inProcessLeads": "Οδηγός διαδικασίας",
  "searchBy": "Αναζήτηση μέσω",
  "allowRegisteringOnlyForClassTypeOpen": "Να επιτρέπονται μόνο μόνο σε αυτές τις τάξεις",
  "allowRegisteringOnlyForFrequencyOpen": "Επιτρέψτε μόνο για αυτή τη συχνότητα",
  "limitDaysOpen": "Αφήστε μόνο αυτήν την ημέρα",
  "limitLocationsOpen": "Να επιτρέπεται μόνο αυτή η τοποθεσία",
  "allowRegisteringOnlyForFrequency": "Allow only for this frequency",
  "lostPercentage": "Απώλεια ποσοστού",
  "convertedPercentage": "Ποσοστό μετατροπής",
  "isFutureMembership": "Έχει μελλοντικά μέλη",
  "unknown": "Άγνωστος",
  "unsubscribe": "Δεν έχει εγγραφεί",
  "editLeadPopupHeader": "Επεξεργασία οδηγού",
  "addLeadPopupHeader": "Προσθήκη οδηγού",
  "second_coach": "Second Coach",
  "without": "Όχι",
  "messageContent": "Το περιεχόμενο του μηνύματος",
  "messageParameters": "Παράμετροι μηνυμάτων",
  "newSmsMessage": "Καινούργιο μήνυμα",
  "newSmsMessageTo": "Καινούργιο μήνυμα για",
  "targetAudience": "Στοχευόμενο κοινό",
  "send": "Στείλετε",
  "messagesCenter": "Κέντρο μηνυμάτων",
  "smsBalance": "sms υπόλοιπο",
  "messageType": "Τύπος μηνύματος",
  "sms": "SMS",
  "push": "Ειδοποίηση push",
  "sendingTime": "Χρόνος αποστολής",
  "allTime": "Όλα",
  "recipient": "Sent to",
  "recipients": "Αποστέλλονται σε",
  "contents": "Περιεχόμενο",
  "removeRequest": "Removal Requests",
  "message": "Μήνυμα",
  "messages": "Μηνύματα",
  "deleteNewsWarning": "Προσοχή!Πρόκειται να διαγραφεί ένα δημόσιο μήνυμα",
  "deleteUserMessageWarning": "Προσοχή!πρόκειται να διαγραφεί αυτό το μήνυμα!",
  "messageSentSuccessfully": "Επιτυχής αποστολή",
  "messagesCenterNoAllowedUsersException": "Ωχ,οι χρήστες σας δεν κατάφεραν να εγκρίνουν την πολιτική SMS",
  "messagesCenterNotAllowedPrivateMessage": "Ωχ, αυτός ο χρήστης δεν ενέκρινε την πολιτική sms (μηνύματος)",
  "messagesCenterMessageProcessing": "Προσοχή! επεξεργαζόμαστε τα δεδομένα, θα ενημερωθεί σύντομα με μήνυμα.",
  "messagesCenterChooseAtLeastOne": "Επιλέξτε τουλάχιστον ένα μέλος.",
  "messagesCenterBoxPhoneInvalidException": "Ο αριθμός του μέλους δεν είναι έγκυρος, επικοινωνήστε με την ομάδα υποστήριξης για να την αλλάξετε.",
  "messagesCenterBoxSmsLimitReachedException": "Μέγιστο όριο πακέτου SMS, επικοινωνήστε με την υπηρεσία εξυπηρέτησης πελατών ή συνεχίστε την απογραφή",
  "newPushMessage": "Νέα ειδοποίηση Push ",
  "newPushMessageTo": "Νέα ειδοποίηση Push για",
  "displayRegularClients": "Θέλετε να ρυθμίζετε τη λειτουργία τακτικά;",
  "displayRegularClientsPopUpHeader": "Ρύθμιση οθόνης...",
  "displayRegularClientsPopUpInfo": "Θέλετε να ενεργοποιήσετε τη λειτουργία ;",
  "displayRegularClientsPopUpButtonLabel": "Άναψε",
  "displayRegularClientsPopUpButtonLabelOff": "Σβήνω",
  "regularClientsRegistration": "Kανονικοί",
  "userAlreadyRegularClient": "Ο πελάτης υπάρχει ήδη στη λίστα τακτικών",
  "hasActiveMembership": "Ενεργός;",
  "regularClientsCalendar": "Kανονικοί",
  "youWillDeleteRegularClients": "Προσοχή! Πρόκειται να διαγράψετε έναν πελάτη από τη λίστα των τακτικών",
  "regularClientsToSeriesIsFull": "Προσοχή! Η σειρά είναι γεμάτη",
  "removeSingleOrSeriesRegularClient": "Αφαιρέστε από τους τακτικούς",
  "regularClientShedulesFullBookingTitle": "Ωχ, φαίνεται ότι ορισμένες από τις επερχόμενες αίθουσες είναι πλήρως κλειστές",
  "regularClientShedulesFullBookingPrefix": " ημερομηνία εκπαίδευσης ",
  "regularClientShedulesFullBookingSuffix": "Πλήρως κλεισμένο...",
  "regularClientShedulesFullBookingEndMessage": "η τάξη είναι πλήρης, θα θέλατε να προσθέσετε ούτως ή άλλως;",
  "choosingOtherTraining": "Επιλέξτε από την παρακάτω λίστα",
  "reservedSeats": "Κατοχυρωμένη αίθουσα",
  "fullScheduleBooking": "Η αίθουσα είναι πλήρης.",
  "attendanceRegularClient": "Εγγραφή των τακτικών.",
  "removeRegularClientUserProfileTitle": "Κατάργηση από τη λίστα των τακτικών",
  "removeRegularClientUserProfileContent": "Προσοχή, πρόκειται να διαγράψετε τον κανονικό πελάτη από αυτή τη σειρά, θα ακυρωθούν επίσης οι επαναλαμβανόμενες κατηγορίες που σχετίζονται με αυτή τη σειρά που θέλετε να συνεχίσετε...",
  "regularClientReportName": "Τακτικοί",
  "regularClientReportNameInside": "Κανονικοί",
  "smsMessage": "Μήνυμα ",
  "pushMessage": "Πατήστε κοινοποίηση",
  "messagesCenterNoAllowedUsersExceptionPush": "Ωχ, οι χρήστες έχουν απενεργοποιήσει την επιλογή ειδοποίησης ώθησης",
  "messagesCenterNotAllowedPrivateMessagePush": "Ωχ, ο χρήστης απενεργοποίησε την επιλογή ειδοποίησης ώθησης πληροφοριών..",
  "viewMessage": "στοιχεία του μηνύματος",
  "theMessage": "σύνδεση ",
  "registerNewRegularClients": "Επιλέξτε τα τακτικά μέλη",
  "registeredRegularClients": "Έχετε κρατήσει ένα μέρος για τα ακόλουθα μέλη....",
  "selectPaymentMethod": "Επιλέξτε τρόπο πληρωμής ",
  "newCreditCard": "Εισαγάγετε νέα πιστωτική κάρτα",
  "otherPaymentMethod": "Άλλη μέθοδος πληρωμής",
  "showRefundOpen": "Θα ήθελα να εκδώσω ένα τιμολόγιο και να επιστρέψω το ποσό..",
  "showRefundClose": "Επιστροφή χρημάτων",
  "creditCardType": "Τύπος κάρτας\n ",
  "lastFourDigits": "Αυτό τελειώνει με",
  "cvv": "cvv",
  "identityCard": " ταυτότητα",
  "creditCardNumber": "αριθμός κάρτας",
  "insights": "Στοιχεία",
  "selectDateRange": "Επιλέξτε Ημερομηνίες:",
  "showResults": "Εμφάνιση αποτελεσμάτων",
  "bookKeeping": "Τήρηση λογιστικών βιβλίων",
  "itemsBestSales": "Οι καλύτεροι πωλητες",
  "rushHours": "Ωρα αιχμής",
  "totalEntersByDays": "Επισκέπτες ανά ημέρα",
  "customerMovements": "Κατάσταση πελάτη",
  "insightOpenLeadsInProcess": "ανοικτούς αγωγούς",
  "insightCreatedLeadsTotal": "Νέος ",
  "insightConvertedTotal": "μετατροπή οδηγιών...",
  "insightLostLeadsTotal": "Χαμένος",
  "insightConvertedLostRelation": "יΣυναλλαγματική ισοτιμία",
  "insightNewClientsTotal": "Καινούργιο",
  "insightRenewsTotal": "Ανανεώσεις ",
  "insightHoldActionsTotal": "Σε κράτηση",
  "insightCancelsTotal": "Ακυρώθηκε",
  "insightExpiredTotal": "Έφτασε στο τέλος",
  "insightRenewsPercentage": "Ποσοστό διατήρησης πελατών..",
  "insightUserEntersTotal": "Συνολικοί επισκέπτες",
  "insightSalesTotal": "Συνολικές πωλήσεις..",
  "insightSalesMemberships": "Μέλη",
  "insightSalesItems": "Προϊόντα..",
  "insightSalesMembershipsPercentage": "Ποσοστό συμμετοχής",
  "insightSalesItemsPercentage": "Ποσοστό προϊόντος",
  "insightActiveMembersEntersTotal": "Μοναδικοί επισκέπτες",
  "insightActiveMembersStart": "Την πρώτη μέρα",
  "insightActiveMembersEnd": "Την τελευταία μέρα...",
  "insightActiveMembersBookedClientsTotal": "Κράτηση",
  "insightActiveMembersGrowth": "Ανάπτυξη..",
  "insightActiveMembersGrowthPercentage": "Ρυθμός ανάπτυξης",
  "insightActiveMembersFutureMembership": "κρατημένες επαναλαμβανόμενες κατηγορίες",
  "insightActiveMembersInHold": "Τα μέλη βρίσκονται σε αναμονή",
  "insightTotalWithoutTax": "Τιμολόγιο...",
  "insightTax": "Μεγάλος κάδος",
  "insightTotalWithTax": "Τιμολόγιο ΦΠΑ",
  "insightTotalReceipts": "Απόδειξη είσπραξης",
  "insightConvertedLeadsPercentage": "Συναλλαγματική ισοτιμία",
  "sessionsPackOver": "Προσοχή, φαίνεται ότι το πακέτο συνεδριών των πελατών έφτασε στο όριο. Είστε έτοιμοι να καταχωρήσετε τον πελάτη πέραν των καταβαλλόμενων κατηγοριών του, θέλετε να συνεχίσετε;",
  "UserIsDeactivated": "Προσοχή, φαίνεται ότι το πακέτο συνεδριών των πελατών έφτασε στο όριο. Είστε έτοιμοι να καταχωρήσετε τον πελάτη πέραν των καταβαλλόμενων κατηγοριών του, θέλετε να συνεχίσετε;",
  "taskCreateOwner": "Δημιουργήθηκε από...",
  "insightsAttendance": "Έλεγχος εισόδου (βασισμένο στο βασικό κλειδί) ",
  "shiftReport": "Περίληψη περιόδου εργασίας.....",
  "shiftReportNameInside": "Περίληψη περιόδου εργασίας...",
  "scheduleDay": "Ακριβής μέρα.",
  "regularClient": "Τακτικός..",
  "searchForInjury": "Είδος τραυματισμού ",
  "statusLead": "Οδηγός..",
  "statusRegularClient": "Τακτικός",
  "statusUser": "Μέλος..",
  "statusSystemUser": "Προσωπικό...",
  "notificationSchedulingTitle": "Προγραμματισμός ειδοποίησης",
  "notificationSchedulingHoursBefore": "ώρες πριν από την προπόνηση.",
  "notificationSchedulingPopUpTitle": "Προγραμματισμός ειδοποίησης",
  "notificationSchedulingPopUp1": "Αποστολή ειδοποίησης...",
  "notificationSchedulingPopUp2": "ώρες πριν από την προπόνηση ",
  "noMembershipFound": "Δεν μπορέσαμε να βρούμε μέλος που να ανταποκρίνεται στον επιλεγμένο χρήστη...",
  "returnRegularClient": "Επιστροφή στην καταχωρημένη κατάσταση...",
  "canNotChooseRegularClientSearch": "Οπελάτης είναι ήδη εγγεγραμμένος ως κανονικός, δεν επιτρέπεται η διπλή κράτηση",
  "canNotDeleteCheckInMember": "Ο πελάτης έχει ήδη κάνει τσεκ ιν - η ακύρωση σε αυτό το σημείο δεν επιτρέπεται...",
  "membershipHoldActiveCantRegisterToWorkout": "Η ιδιότητα μέλους των χρηστών βρίσκεται σε παύση, η κράτηση δεν επιτρέπεται",
  "userBiDebts1": "Εκκρεμή χρέος...",
  "userBiDebts2": "NIS",
  "regularClientMember": "Υπάρχει τακτική",
  "regular": "Τακτικός....",
  "regularClientSavingSpots": "Κρατημένες αίθουσες για τακτικούς",
  "regularClientSavingSpotsFollowingClasses": "Επιλέξτε αίθουσες για τακτικούς..",
  "userFk": "Ταυτότητα χρήστη",
  "searchForUserFk": "αναζήτηση σύμφωνα με το αναγνωριστικό χρήστη...",
  "transactionsReport": "Έκθεση λεπτομερειών συναλλαγής",
  "transactionsReportNameInside": "Έκθεση λεπτομερειών συναλλαγής...",
  "numberOfPayment": "Αριθμός πληρωμών...",
  "pushMessageLengthWarning": " Προσοχή! Έχετε υπερβεί το συνιστώμενο αριθμό χαρακτήρων, το μήνυμα είναι μεγαλύτερο από το συνηθισμένο και ορισμένες συσκευές ενδέχεται να μην το αποδεχτούν. ",
  "deactivateTime": "Χρόνος απενεργοποίησης...",
  "leadLostReasons": "Ξεχασμένοι λόγοι",
  "deleteWaringLeadLostReasons": "Πρόκειται να διαγράψετε έναν λόγο, είστε βέβαιοι;",
  "addLeadLostReason": "Προσθέσετε χαμένο λόγο...",
  "editLeadLostReason": "Επεξεργασία χαμένου λόγου...",
  "selectLostLeadReasons": "επιλέξτε τον χαμένο λόγο ",
  "lostReason": "Χαμένος λόγος..."
}